2016-07-26 10:56:37.616 b.s.u.Utils [INFO] Using defaults.yaml from resources
2016-07-26 10:56:37.674 b.s.u.Utils [INFO] Using storm.yaml from resources
2016-07-26 10:56:38.226 o.a.s.s.o.a.z.ZooKeeper [INFO] Client environment:zookeeper.version=3.4.6-1569965, built on 02/20/2014 09:09 GMT
2016-07-26 10:56:38.227 o.a.s.s.o.a.z.ZooKeeper [INFO] Client environment:host.name=node1
2016-07-26 10:56:38.227 o.a.s.s.o.a.z.ZooKeeper [INFO] Client environment:java.version=1.8.0_91
2016-07-26 10:56:38.227 o.a.s.s.o.a.z.ZooKeeper [INFO] Client environment:java.vendor=Oracle Corporation
2016-07-26 10:56:38.227 o.a.s.s.o.a.z.ZooKeeper [INFO] Client environment:java.home=/usr/lib/jvm/java-1.8.0-openjdk-1.8.0.91-0.b14.el7_2.x86_64/jre
2016-07-26 10:56:38.227 o.a.s.s.o.a.z.ZooKeeper [INFO] Client environment:java.class.path=/home/triparna/bmt2/streaming-benchmarks/apache-storm-0.10.0/lib/storm-core-0.10.0.jar:/home/triparna/bmt2/streaming-benchmarks/apache-storm-0.10.0/lib/kryo-2.21.jar:/home/triparna/bmt2/streaming-benchmarks/apache-storm-0.10.0/lib/reflectasm-1.07-shaded.jar:/home/triparna/bmt2/streaming-benchmarks/apache-storm-0.10.0/lib/asm-4.0.jar:/home/triparna/bmt2/streaming-benchmarks/apache-storm-0.10.0/lib/minlog-1.2.jar:/home/triparna/bmt2/streaming-benchmarks/apache-storm-0.10.0/lib/clojure-1.6.0.jar:/home/triparna/bmt2/streaming-benchmarks/apache-storm-0.10.0/lib/disruptor-2.10.4.jar:/home/triparna/bmt2/streaming-benchmarks/apache-storm-0.10.0/lib/log4j-api-2.1.jar:/home/triparna/bmt2/streaming-benchmarks/apache-storm-0.10.0/lib/log4j-core-2.1.jar:/home/triparna/bmt2/streaming-benchmarks/apache-storm-0.10.0/lib/log4j-slf4j-impl-2.1.jar:/home/triparna/bmt2/streaming-benchmarks/apache-storm-0.10.0/lib/slf4j-api-1.7.7.jar:/home/triparna/bmt2/streaming-benchmarks/apache-storm-0.10.0/lib/log4j-over-slf4j-1.6.6.jar:/home/triparna/bmt2/streaming-benchmarks/apache-storm-0.10.0/lib/hadoop-auth-2.4.0.jar:/home/triparna/bmt2/streaming-benchmarks/apache-storm-0.10.0/lib/servlet-api-2.5.jar:/home/triparna/bmt2/streaming-benchmarks/apache-storm-0.10.0/conf:/home/triparna/bmt2/streaming-benchmarks/apache-storm-0.10.0/storm-local/supervisor/stormdist/test-topo-1-1469526995/stormjar.jar
2016-07-26 10:56:38.227 o.a.s.s.o.a.z.ZooKeeper [INFO] Client environment:java.library.path=/home/triparna/bmt2/streaming-benchmarks/apache-storm-0.10.0/storm-local/supervisor/stormdist/test-topo-1-1469526995/resources/Linux-amd64:/home/triparna/bmt2/streaming-benchmarks/apache-storm-0.10.0/storm-local/supervisor/stormdist/test-topo-1-1469526995/resources:/usr/local/lib:/opt/local/lib:/usr/lib
2016-07-26 10:56:38.227 o.a.s.s.o.a.z.ZooKeeper [INFO] Client environment:java.io.tmpdir=/tmp
2016-07-26 10:56:38.228 o.a.s.s.o.a.z.ZooKeeper [INFO] Client environment:java.compiler=<NA>
2016-07-26 10:56:38.228 o.a.s.s.o.a.z.ZooKeeper [INFO] Client environment:os.name=Linux
2016-07-26 10:56:38.228 o.a.s.s.o.a.z.ZooKeeper [INFO] Client environment:os.arch=amd64
2016-07-26 10:56:38.228 o.a.s.s.o.a.z.ZooKeeper [INFO] Client environment:os.version=3.10.0-327.18.2.el7.x86_64
2016-07-26 10:56:38.228 o.a.s.s.o.a.z.ZooKeeper [INFO] Client environment:user.name=triparna
2016-07-26 10:56:38.228 o.a.s.s.o.a.z.ZooKeeper [INFO] Client environment:user.home=/home/triparna
2016-07-26 10:56:38.228 o.a.s.s.o.a.z.ZooKeeper [INFO] Client environment:user.dir=/home/triparna/bmt2/streaming-benchmarks/apache-storm-0.10.0/storm-local/workers/a797f289-1fd1-4999-bf58-b9edffea701c
2016-07-26 10:56:38.234 o.a.s.s.o.a.z.s.ZooKeeperServer [INFO] Server environment:zookeeper.version=3.4.6-1569965, built on 02/20/2014 09:09 GMT
2016-07-26 10:56:38.234 o.a.s.s.o.a.z.s.ZooKeeperServer [INFO] Server environment:host.name=node1
2016-07-26 10:56:38.234 o.a.s.s.o.a.z.s.ZooKeeperServer [INFO] Server environment:java.version=1.8.0_91
2016-07-26 10:56:38.234 o.a.s.s.o.a.z.s.ZooKeeperServer [INFO] Server environment:java.vendor=Oracle Corporation
2016-07-26 10:56:38.235 o.a.s.s.o.a.z.s.ZooKeeperServer [INFO] Server environment:java.home=/usr/lib/jvm/java-1.8.0-openjdk-1.8.0.91-0.b14.el7_2.x86_64/jre
2016-07-26 10:56:38.235 o.a.s.s.o.a.z.s.ZooKeeperServer [INFO] Server environment:java.class.path=/home/triparna/bmt2/streaming-benchmarks/apache-storm-0.10.0/lib/storm-core-0.10.0.jar:/home/triparna/bmt2/streaming-benchmarks/apache-storm-0.10.0/lib/kryo-2.21.jar:/home/triparna/bmt2/streaming-benchmarks/apache-storm-0.10.0/lib/reflectasm-1.07-shaded.jar:/home/triparna/bmt2/streaming-benchmarks/apache-storm-0.10.0/lib/asm-4.0.jar:/home/triparna/bmt2/streaming-benchmarks/apache-storm-0.10.0/lib/minlog-1.2.jar:/home/triparna/bmt2/streaming-benchmarks/apache-storm-0.10.0/lib/clojure-1.6.0.jar:/home/triparna/bmt2/streaming-benchmarks/apache-storm-0.10.0/lib/disruptor-2.10.4.jar:/home/triparna/bmt2/streaming-benchmarks/apache-storm-0.10.0/lib/log4j-api-2.1.jar:/home/triparna/bmt2/streaming-benchmarks/apache-storm-0.10.0/lib/log4j-core-2.1.jar:/home/triparna/bmt2/streaming-benchmarks/apache-storm-0.10.0/lib/log4j-slf4j-impl-2.1.jar:/home/triparna/bmt2/streaming-benchmarks/apache-storm-0.10.0/lib/slf4j-api-1.7.7.jar:/home/triparna/bmt2/streaming-benchmarks/apache-storm-0.10.0/lib/log4j-over-slf4j-1.6.6.jar:/home/triparna/bmt2/streaming-benchmarks/apache-storm-0.10.0/lib/hadoop-auth-2.4.0.jar:/home/triparna/bmt2/streaming-benchmarks/apache-storm-0.10.0/lib/servlet-api-2.5.jar:/home/triparna/bmt2/streaming-benchmarks/apache-storm-0.10.0/conf:/home/triparna/bmt2/streaming-benchmarks/apache-storm-0.10.0/storm-local/supervisor/stormdist/test-topo-1-1469526995/stormjar.jar
2016-07-26 10:56:38.235 o.a.s.s.o.a.z.s.ZooKeeperServer [INFO] Server environment:java.library.path=/home/triparna/bmt2/streaming-benchmarks/apache-storm-0.10.0/storm-local/supervisor/stormdist/test-topo-1-1469526995/resources/Linux-amd64:/home/triparna/bmt2/streaming-benchmarks/apache-storm-0.10.0/storm-local/supervisor/stormdist/test-topo-1-1469526995/resources:/usr/local/lib:/opt/local/lib:/usr/lib
2016-07-26 10:56:38.235 o.a.s.s.o.a.z.s.ZooKeeperServer [INFO] Server environment:java.io.tmpdir=/tmp
2016-07-26 10:56:38.235 o.a.s.s.o.a.z.s.ZooKeeperServer [INFO] Server environment:java.compiler=<NA>
2016-07-26 10:56:38.235 o.a.s.s.o.a.z.s.ZooKeeperServer [INFO] Server environment:os.name=Linux
2016-07-26 10:56:38.235 o.a.s.s.o.a.z.s.ZooKeeperServer [INFO] Server environment:os.arch=amd64
2016-07-26 10:56:38.236 o.a.s.s.o.a.z.s.ZooKeeperServer [INFO] Server environment:os.version=3.10.0-327.18.2.el7.x86_64
2016-07-26 10:56:38.236 o.a.s.s.o.a.z.s.ZooKeeperServer [INFO] Server environment:user.name=triparna
2016-07-26 10:56:38.236 o.a.s.s.o.a.z.s.ZooKeeperServer [INFO] Server environment:user.home=/home/triparna
2016-07-26 10:56:38.236 o.a.s.s.o.a.z.s.ZooKeeperServer [INFO] Server environment:user.dir=/home/triparna/bmt2/streaming-benchmarks/apache-storm-0.10.0/storm-local/workers/a797f289-1fd1-4999-bf58-b9edffea701c
2016-07-26 10:56:38.378 b.s.u.Utils [INFO] Using defaults.yaml from resources
2016-07-26 10:56:38.389 b.s.u.Utils [INFO] Using storm.yaml from resources
2016-07-26 10:56:38.429 b.s.d.worker [INFO] Launching worker for test-topo-1-1469526995 on 6d10be4e-08b6-402b-b2af-cc49bfcb9dd2:6700 with id a797f289-1fd1-4999-bf58-b9edffea701c and conf {"topology.builtin.metrics.bucket.size.secs" 60, "nimbus.childopts" "-Xmx1024m", "ui.filter.params" nil, "storm.cluster.mode" "distributed", "storm.messaging.netty.client_worker_threads" 1, "supervisor.run.worker.as.user" false, "topology.max.task.parallelism" nil, "zmq.threads" 1, "storm.group.mapping.service" "backtype.storm.security.auth.ShellBasedGroupsMapping", "transactional.zookeeper.root" "/transactional", "topology.sleep.spout.wait.strategy.time.ms" 1, "drpc.invocations.port" 3773, "topology.multilang.serializer" "backtype.storm.multilang.JsonSerializer", "storm.messaging.netty.server_worker_threads" 1, "topology.max.error.report.per.interval" 5, "storm.thrift.transport" "backtype.storm.security.auth.SimpleTransportPlugin", "zmq.hwm" 0, "storm.principal.tolocal" "backtype.storm.security.auth.DefaultPrincipalToLocal", "supervisor.worker.shutdown.sleep.secs" 1, "storm.zookeeper.retry.times" 5, "ui.actions.enabled" true, "zmq.linger.millis" 5000, "supervisor.enable" true, "topology.stats.sample.rate" 0.05, "storm.messaging.netty.min_wait_ms" 100, "storm.zookeeper.port" 9999, "supervisor.heartbeat.frequency.secs" 5, "topology.enable.message.timeouts" true, "drpc.worker.threads" 64, "drpc.queue.size" 128, "drpc.https.keystore.password" "", "logviewer.port" 8000, "nimbus.reassign" true, "topology.executor.send.buffer.size" 1024, "topology.spout.wait.strategy" "backtype.storm.spout.SleepSpoutWaitStrategy", "ui.host" "0.0.0.0", "storm.nimbus.retry.interval.millis" 2000, "nimbus.inbox.jar.expiration.secs" 3600, "dev.zookeeper.path" "/tmp/dev-storm-zookeeper", "topology.acker.executors" nil, "topology.fall.back.on.java.serialization" true, "storm.zookeeper.servers" ["localhost" "localhost"], "nimbus.thrift.threads" 64, "logviewer.cleanup.age.mins" 10080, "topology.worker.childopts" nil, "topology.classpath" nil, "supervisor.monitor.frequency.secs" 3, "nimbus.credential.renewers.freq.secs" 600, "topology.skip.missing.kryo.registrations" false, "drpc.authorizer.acl.filename" "drpc-auth-acl.yaml", "storm.group.mapping.service.cache.duration.secs" 120, "topology.testing.always.try.serialize" false, "nimbus.monitor.freq.secs" 10, "supervisor.supervisors" [], "topology.tasks" nil, "topology.bolts.outgoing.overflow.buffer.enable" false, "storm.messaging.netty.socket.backlog" 500, "topology.workers" 1, "storm.local.dir" "storm-local", "worker.childopts" "-Xmx768m", "storm.auth.simple-white-list.users" [], "topology.message.timeout.secs" 30, "topology.state.synchronization.timeout.secs" 60, "topology.tuple.serializer" "backtype.storm.serialization.types.ListDelegateSerializer", "supervisor.supervisors.commands" [], "logviewer.childopts" "-Xmx128m", "topology.environment" nil, "topology.debug" false, "storm.messaging.netty.max_retries" 300, "ui.childopts" "-Xmx768m", "storm.zookeeper.session.timeout" 20000, "drpc.childopts" "-Xmx768m", "drpc.http.creds.plugin" "backtype.storm.security.auth.DefaultHttpCredentialsPlugin", "storm.zookeeper.connection.timeout" 15000, "storm.zookeeper.auth.user" nil, "storm.meta.serialization.delegate" "backtype.storm.serialization.GzipThriftSerializationDelegate", "topology.max.spout.pending" nil, "nimbus.supervisor.timeout.secs" 60, "nimbus.task.timeout.secs" 30, "drpc.port" 3772, "storm.zookeeper.retry.intervalceiling.millis" 30000, "nimbus.thrift.port" 6627, "storm.auth.simple-acl.admins" [], "storm.nimbus.retry.times" 5, "supervisor.worker.start.timeout.secs" 120, "storm.zookeeper.retry.interval" 1000, "logs.users" nil, "transactional.zookeeper.port" nil, "drpc.max_buffer_size" 1048576, "task.credentials.poll.secs" 30, "drpc.https.keystore.type" "JKS", "topology.worker.receiver.thread.count" 1, "supervisor.slots.ports" [6700 6701 6702 6703], "topology.transfer.buffer.size" 1024, "topology.worker.shared.thread.pool.size" 4, "drpc.authorizer.acl.strict" false, "nimbus.file.copy.expiration.secs" 600, "topology.executor.receive.buffer.size" 1024, "nimbus.task.launch.secs" 120, "storm.local.mode.zmq" false, "storm.messaging.netty.buffer_size" 5242880, "worker.heartbeat.frequency.secs" 1, "ui.http.creds.plugin" "backtype.storm.security.auth.DefaultHttpCredentialsPlugin", "storm.zookeeper.root" "/storm", "topology.tick.tuple.freq.secs" nil, "drpc.https.port" -1, "task.refresh.poll.secs" 10, "task.heartbeat.frequency.secs" 3, "storm.messaging.netty.max_wait_ms" 1000, "nimbus.impersonation.authorizer" "backtype.storm.security.auth.authorizer.ImpersonationAuthorizer", "drpc.http.port" 3774, "topology.error.throttle.interval.secs" 10, "storm.messaging.transport" "backtype.storm.messaging.netty.Context", "storm.messaging.netty.authentication" false, "topology.kryo.factory" "backtype.storm.serialization.DefaultKryoFactory", "worker.gc.childopts" "", "nimbus.topology.validator" "backtype.storm.nimbus.DefaultTopologyValidator", "nimbus.cleanup.inbox.freq.secs" 600, "ui.users" nil, "transactional.zookeeper.servers" nil, "supervisor.worker.timeout.secs" 30, "storm.zookeeper.auth.password" nil, "supervisor.childopts" "-Xmx256m", "ui.filter" nil, "ui.header.buffer.bytes" 4096, "topology.disruptor.wait.timeout.millis" 1000, "storm.nimbus.retry.intervalceiling.millis" 60000, "topology.trident.batch.emit.interval.millis" 500, "topology.disruptor.wait.strategy" "com.lmax.disruptor.BlockingWaitStrategy", "storm.auth.simple-acl.users" [], "drpc.invocations.threads" 64, "java.library.path" "/usr/local/lib:/opt/local/lib:/usr/lib", "ui.port" 8080, "storm.messaging.netty.transfer.batch.size" 262144, "logviewer.appender.name" "A1", "nimbus.thrift.max_buffer_size" 1048576, "nimbus.host" "localhost", "storm.auth.simple-acl.users.commands" [], "drpc.request.timeout.secs" 600}
2016-07-26 10:56:38.452 b.s.u.StormBoundedExponentialBackoffRetry [INFO] The baseSleepTimeMs [1000] the maxSleepTimeMs [30000] the maxRetries [5]
2016-07-26 10:56:38.491 o.a.s.s.o.a.c.f.i.CuratorFrameworkImpl [INFO] Starting
2016-07-26 10:56:38.493 o.a.s.s.o.a.z.ZooKeeper [INFO] Initiating client connection, connectString=localhost:9999,localhost:9999 sessionTimeout=20000 watcher=org.apache.storm.shade.org.apache.curator.ConnectionState@48284d0e
2016-07-26 10:56:38.507 o.a.s.s.o.a.z.ClientCnxn [INFO] Opening socket connection to server localhost/127.0.0.1:9999. Will not attempt to authenticate using SASL (unknown error)
2016-07-26 10:56:38.574 o.a.s.s.o.a.z.ClientCnxn [INFO] Socket connection established to localhost/127.0.0.1:9999, initiating session
2016-07-26 10:56:38.595 o.a.s.s.o.a.z.ClientCnxn [INFO] Session establishment complete on server localhost/127.0.0.1:9999, sessionid = 0x15626a17a7b0006, negotiated timeout = 20000
2016-07-26 10:56:38.598 o.a.s.s.o.a.c.f.s.ConnectionStateManager [INFO] State change: CONNECTED
2016-07-26 10:56:38.600 b.s.zookeeper [INFO] Zookeeper state update: :connected:none
2016-07-26 10:56:39.635 o.a.s.s.o.a.z.ZooKeeper [INFO] Session: 0x15626a17a7b0006 closed
2016-07-26 10:56:39.635 o.a.s.s.o.a.z.ClientCnxn [INFO] EventThread shut down
2016-07-26 10:56:39.637 b.s.u.StormBoundedExponentialBackoffRetry [INFO] The baseSleepTimeMs [1000] the maxSleepTimeMs [30000] the maxRetries [5]
2016-07-26 10:56:39.639 o.a.s.s.o.a.c.f.i.CuratorFrameworkImpl [INFO] Starting
2016-07-26 10:56:39.640 o.a.s.s.o.a.z.ZooKeeper [INFO] Initiating client connection, connectString=localhost:9999,localhost:9999/storm sessionTimeout=20000 watcher=org.apache.storm.shade.org.apache.curator.ConnectionState@65f58c6e
2016-07-26 10:56:39.641 o.a.s.s.o.a.z.ClientCnxn [INFO] Opening socket connection to server localhost/127.0.0.1:9999. Will not attempt to authenticate using SASL (unknown error)
2016-07-26 10:56:39.642 o.a.s.s.o.a.z.ClientCnxn [INFO] Socket connection established to localhost/127.0.0.1:9999, initiating session
2016-07-26 10:56:39.660 o.a.s.s.o.a.z.ClientCnxn [INFO] Session establishment complete on server localhost/127.0.0.1:9999, sessionid = 0x15626a17a7b0007, negotiated timeout = 20000
2016-07-26 10:56:39.661 o.a.s.s.o.a.c.f.s.ConnectionStateManager [INFO] State change: CONNECTED
2016-07-26 10:56:39.685 b.s.s.a.AuthUtils [INFO] Got AutoCreds []
2016-07-26 10:56:39.689 b.s.d.worker [INFO] Reading Assignments.
2016-07-26 10:56:39.724 b.s.m.TransportFactory [INFO] Storm peer transport plugin:backtype.storm.messaging.netty.Context
2016-07-26 10:56:39.764 b.s.m.n.Server [INFO] Create Netty Server Netty-server-localhost-6700, buffer_size: 5242880, maxWorkers: 1
2016-07-26 10:56:39.856 b.s.d.worker [INFO] Launching receive-thread for 6d10be4e-08b6-402b-b2af-cc49bfcb9dd2:6700
2016-07-26 10:56:39.861 b.s.m.loader [INFO] Starting receive-thread: [stormId: test-topo-1-1469526995, port: 6700, thread-id: 0 ]
2016-07-26 10:56:40.083 b.s.d.executor [INFO] Loading executor event_projection:[8 8]
2016-07-26 10:56:40.096 b.s.d.executor [INFO] Loaded executor tasks event_projection:[8 8]
2016-07-26 10:56:40.104 b.s.d.executor [INFO] Finished loading executor event_projection:[8 8]
2016-07-26 10:56:40.113 b.s.d.executor [INFO] Loading executor __acker:[2 2]
2016-07-26 10:56:40.114 b.s.d.executor [INFO] Loaded executor tasks __acker:[2 2]
2016-07-26 10:56:40.117 b.s.d.executor [INFO] Timeouts disabled for executor __acker:[2 2]
2016-07-26 10:56:40.117 b.s.d.executor [INFO] Finished loading executor __acker:[2 2]
2016-07-26 10:56:40.123 b.s.d.executor [INFO] Loading executor event_filter:[7 7]
2016-07-26 10:56:40.126 b.s.d.executor [INFO] Loaded executor tasks event_filter:[7 7]
2016-07-26 10:56:40.127 b.s.d.executor [INFO] Finished loading executor event_filter:[7 7]
2016-07-26 10:56:40.134 b.s.d.executor [INFO] Loading executor ads:[3 3]
2016-07-26 10:56:40.145 b.s.d.executor [INFO] Loaded executor tasks ads:[3 3]
2016-07-26 10:56:40.152 b.s.d.executor [INFO] Finished loading executor ads:[3 3]
2016-07-26 10:56:40.158 b.s.d.executor [INFO] Loading executor __acker:[1 1]
2016-07-26 10:56:40.159 b.s.d.executor [INFO] Loaded executor tasks __acker:[1 1]
2016-07-26 10:56:40.161 b.s.d.executor [INFO] Timeouts disabled for executor __acker:[1 1]
2016-07-26 10:56:40.162 b.s.d.executor [INFO] Finished loading executor __acker:[1 1]
2016-07-26 10:56:40.167 b.s.d.executor [INFO] Loading executor event_deserializer:[6 6]
2016-07-26 10:56:40.169 b.s.d.executor [INFO] Loaded executor tasks event_deserializer:[6 6]
2016-07-26 10:56:40.171 b.s.d.executor [INFO] Finished loading executor event_deserializer:[6 6]
2016-07-26 10:56:40.176 b.s.d.executor [INFO] Loading executor redis_join:[9 9]
2016-07-26 10:56:40.179 b.s.d.executor [INFO] Loaded executor tasks redis_join:[9 9]
2016-07-26 10:56:40.180 b.s.d.executor [INFO] Finished loading executor redis_join:[9 9]
2016-07-26 10:56:40.185 b.s.d.executor [INFO] Loading executor __system:[-1 -1]
2016-07-26 10:56:40.185 b.s.d.executor [INFO] Loaded executor tasks __system:[-1 -1]
2016-07-26 10:56:40.188 b.s.d.executor [INFO] Finished loading executor __system:[-1 -1]
2016-07-26 10:56:40.193 b.s.d.executor [INFO] Loading executor campaign_processor:[5 5]
2016-07-26 10:56:40.197 b.s.d.executor [INFO] Loaded executor tasks campaign_processor:[5 5]
2016-07-26 10:56:40.199 b.s.d.executor [INFO] Finished loading executor campaign_processor:[5 5]
2016-07-26 10:56:40.205 b.s.d.executor [INFO] Loading executor campaign_processor:[4 4]
2016-07-26 10:56:40.206 b.s.d.executor [INFO] Loaded executor tasks campaign_processor:[4 4]
2016-07-26 10:56:40.207 b.s.d.executor [INFO] Finished loading executor campaign_processor:[4 4]
2016-07-26 10:56:40.217 b.s.d.worker [INFO] Worker has topology config {"topology.builtin.metrics.bucket.size.secs" 60, "nimbus.childopts" "-Xmx1024m", "ui.filter.params" nil, "storm.cluster.mode" "distributed", "storm.messaging.netty.client_worker_threads" 1, "supervisor.run.worker.as.user" false, "topology.max.task.parallelism" nil, "zmq.threads" 1, "storm.group.mapping.service" "backtype.storm.security.auth.ShellBasedGroupsMapping", "transactional.zookeeper.root" "/transactional", "topology.sleep.spout.wait.strategy.time.ms" 1, "drpc.invocations.port" 3773, "topology.multilang.serializer" "backtype.storm.multilang.JsonSerializer", "storm.messaging.netty.server_worker_threads" 1, "topology.max.error.report.per.interval" 5, "storm.thrift.transport" "backtype.storm.security.auth.SimpleTransportPlugin", "zmq.hwm" 0, "storm.principal.tolocal" "backtype.storm.security.auth.DefaultPrincipalToLocal", "supervisor.worker.shutdown.sleep.secs" 1, "storm.zookeeper.retry.times" 5, "ui.actions.enabled" true, "zmq.linger.millis" 5000, "supervisor.enable" true, "topology.stats.sample.rate" 0.05, "storm.messaging.netty.min_wait_ms" 100, "storm.zookeeper.port" 9999, "supervisor.heartbeat.frequency.secs" 5, "topology.enable.message.timeouts" true, "drpc.worker.threads" 64, "drpc.queue.size" 128, "drpc.https.keystore.password" "", "logviewer.port" 8000, "nimbus.reassign" true, "topology.executor.send.buffer.size" 1024, "topology.spout.wait.strategy" "backtype.storm.spout.SleepSpoutWaitStrategy", "ui.host" "0.0.0.0", "topology.submitter.principal" "", "storm.nimbus.retry.interval.millis" 2000, "nimbus.inbox.jar.expiration.secs" 3600, "dev.zookeeper.path" "/tmp/dev-storm-zookeeper", "topology.acker.executors" 2, "topology.fall.back.on.java.serialization" true, "storm.zookeeper.servers" ["localhost" "localhost"], "nimbus.thrift.threads" 64, "logviewer.cleanup.age.mins" 10080, "topology.worker.childopts" nil, "topology.classpath" nil, "supervisor.monitor.frequency.secs" 3, "nimbus.credential.renewers.freq.secs" 600, "topology.skip.missing.kryo.registrations" false, "drpc.authorizer.acl.filename" "drpc-auth-acl.yaml", "storm.group.mapping.service.cache.duration.secs" 120, "topology.testing.always.try.serialize" false, "nimbus.monitor.freq.secs" 10, "supervisor.supervisors" [], "topology.tasks" nil, "topology.bolts.outgoing.overflow.buffer.enable" false, "storm.messaging.netty.socket.backlog" 500, "topology.workers" 1, "storm.local.dir" "storm-local", "worker.childopts" "-Xmx768m", "storm.auth.simple-white-list.users" [], "topology.message.timeout.secs" 30, "topology.state.synchronization.timeout.secs" 60, "topology.tuple.serializer" "backtype.storm.serialization.types.ListDelegateSerializer", "supervisor.supervisors.commands" [], "logviewer.childopts" "-Xmx128m", "topology.environment" nil, "topology.debug" false, "storm.messaging.netty.max_retries" 300, "ui.childopts" "-Xmx768m", "storm.zookeeper.session.timeout" 20000, "drpc.childopts" "-Xmx768m", "drpc.http.creds.plugin" "backtype.storm.security.auth.DefaultHttpCredentialsPlugin", "storm.zookeeper.connection.timeout" 15000, "storm.zookeeper.auth.user" nil, "storm.meta.serialization.delegate" "backtype.storm.serialization.GzipThriftSerializationDelegate", "topology.max.spout.pending" nil, "nimbus.supervisor.timeout.secs" 60, "nimbus.task.timeout.secs" 30, "storm.zookeeper.superACL" nil, "drpc.port" 3772, "storm.zookeeper.retry.intervalceiling.millis" 30000, "nimbus.thrift.port" 6627, "storm.auth.simple-acl.admins" [], "storm.nimbus.retry.times" 5, "supervisor.worker.start.timeout.secs" 120, "storm.zookeeper.retry.interval" 1000, "logs.users" nil, "transactional.zookeeper.port" nil, "drpc.max_buffer_size" 1048576, "task.credentials.poll.secs" 30, "drpc.https.keystore.type" "JKS", "topology.worker.receiver.thread.count" 1, "supervisor.slots.ports" [6700 6701 6702 6703], "topology.transfer.buffer.size" 1024, "topology.worker.shared.thread.pool.size" 4, "drpc.authorizer.acl.strict" false, "nimbus.file.copy.expiration.secs" 600, "topology.executor.receive.buffer.size" 1024, "topology.users" [], "nimbus.task.launch.secs" 120, "storm.local.mode.zmq" false, "storm.messaging.netty.buffer_size" 5242880, "worker.heartbeat.frequency.secs" 1, "ui.http.creds.plugin" "backtype.storm.security.auth.DefaultHttpCredentialsPlugin", "storm.zookeeper.root" "/storm", "topology.submitter.user" "", "topology.tick.tuple.freq.secs" nil, "drpc.https.port" -1, "task.refresh.poll.secs" 10, "task.heartbeat.frequency.secs" 3, "storm.messaging.netty.max_wait_ms" 1000, "nimbus.impersonation.authorizer" "backtype.storm.security.auth.authorizer.ImpersonationAuthorizer", "drpc.http.port" 3774, "topology.error.throttle.interval.secs" 10, "storm.messaging.transport" "backtype.storm.messaging.netty.Context", "storm.messaging.netty.authentication" false, "topology.kryo.factory" "backtype.storm.serialization.DefaultKryoFactory", "topology.kryo.register" nil, "worker.gc.childopts" "", "nimbus.topology.validator" "backtype.storm.nimbus.DefaultTopologyValidator", "nimbus.cleanup.inbox.freq.secs" 600, "ui.users" nil, "transactional.zookeeper.servers" nil, "supervisor.worker.timeout.secs" 30, "storm.zookeeper.auth.password" nil, "supervisor.childopts" "-Xmx256m", "ui.filter" nil, "ui.header.buffer.bytes" 4096, "topology.disruptor.wait.timeout.millis" 1000, "storm.nimbus.retry.intervalceiling.millis" 60000, "topology.trident.batch.emit.interval.millis" 500, "topology.disruptor.wait.strategy" "com.lmax.disruptor.BlockingWaitStrategy", "storm.auth.simple-acl.users" [], "drpc.invocations.threads" 64, "java.library.path" "/usr/local/lib:/opt/local/lib:/usr/lib", "ui.port" 8080, "topology.kryo.decorators" [], "storm.id" "test-topo-1-1469526995", "topology.name" "test-topo", "storm.messaging.netty.transfer.batch.size" 262144, "logviewer.appender.name" "A1", "nimbus.thrift.max_buffer_size" 1048576, "nimbus.host" "localhost", "storm.auth.simple-acl.users.commands" [], "drpc.request.timeout.secs" 600}
2016-07-26 10:56:40.218 b.s.d.worker [INFO] Worker a797f289-1fd1-4999-bf58-b9edffea701c for storm test-topo-1-1469526995 on 6d10be4e-08b6-402b-b2af-cc49bfcb9dd2:6700 has finished loading
2016-07-26 10:56:40.825 b.s.d.worker [INFO] All connections are ready for worker 6d10be4e-08b6-402b-b2af-cc49bfcb9dd2:6700 with id a797f289-1fd1-4999-bf58-b9edffea701c
2016-07-26 10:56:40.856 b.s.d.executor [INFO] Opening spout ads:(3)
2016-07-26 10:56:40.862 b.s.d.executor [INFO] Preparing bolt __acker:(1)
2016-07-26 10:56:40.866 b.s.d.executor [INFO] Prepared bolt __acker:(1)
2016-07-26 10:56:40.872 b.s.d.executor [INFO] Preparing bolt event_deserializer:(6)
2016-07-26 10:56:40.873 b.s.d.executor [INFO] Prepared bolt event_deserializer:(6)
2016-07-26 10:56:40.882 b.s.d.executor [INFO] Preparing bolt redis_join:(9)
2016-07-26 10:56:40.889 b.s.d.executor [INFO] Preparing bolt __system:(-1)
2016-07-26 10:56:40.892 b.s.d.executor [INFO] Prepared bolt __system:(-1)
2016-07-26 10:56:40.896 b.s.d.executor [INFO] Prepared bolt redis_join:(9)
2016-07-26 10:56:40.900 b.s.d.executor [INFO] Preparing bolt campaign_processor:(5)
2016-07-26 10:56:40.902 b.s.d.executor [INFO] Prepared bolt campaign_processor:(5)
2016-07-26 10:56:40.905 b.s.d.executor [INFO] Preparing bolt event_projection:(8)
2016-07-26 10:56:40.905 b.s.d.executor [INFO] Prepared bolt event_projection:(8)
2016-07-26 10:56:40.908 b.s.d.executor [INFO] Preparing bolt campaign_processor:(4)
2016-07-26 10:56:40.909 b.s.d.executor [INFO] Prepared bolt campaign_processor:(4)
2016-07-26 10:56:40.917 b.s.d.executor [INFO] Preparing bolt __acker:(2)
2016-07-26 10:56:40.918 b.s.d.executor [INFO] Prepared bolt __acker:(2)
2016-07-26 10:56:40.921 o.a.c.f.i.CuratorFrameworkImpl [INFO] Starting
2016-07-26 10:56:40.928 b.s.d.executor [INFO] Preparing bolt event_filter:(7)
2016-07-26 10:56:40.929 o.a.z.ZooKeeper [INFO] Client environment:zookeeper.version=3.4.6-1569965, built on 02/20/2014 09:09 GMT
2016-07-26 10:56:40.929 b.s.d.executor [INFO] Prepared bolt event_filter:(7)
2016-07-26 10:56:40.929 o.a.z.ZooKeeper [INFO] Client environment:host.name=node1
2016-07-26 10:56:40.929 o.a.z.ZooKeeper [INFO] Client environment:java.version=1.8.0_91
2016-07-26 10:56:40.929 o.a.z.ZooKeeper [INFO] Client environment:java.vendor=Oracle Corporation
2016-07-26 10:56:40.929 o.a.z.ZooKeeper [INFO] Client environment:java.home=/usr/lib/jvm/java-1.8.0-openjdk-1.8.0.91-0.b14.el7_2.x86_64/jre
2016-07-26 10:56:40.929 o.a.z.ZooKeeper [INFO] Client environment:java.class.path=/home/triparna/bmt2/streaming-benchmarks/apache-storm-0.10.0/lib/storm-core-0.10.0.jar:/home/triparna/bmt2/streaming-benchmarks/apache-storm-0.10.0/lib/kryo-2.21.jar:/home/triparna/bmt2/streaming-benchmarks/apache-storm-0.10.0/lib/reflectasm-1.07-shaded.jar:/home/triparna/bmt2/streaming-benchmarks/apache-storm-0.10.0/lib/asm-4.0.jar:/home/triparna/bmt2/streaming-benchmarks/apache-storm-0.10.0/lib/minlog-1.2.jar:/home/triparna/bmt2/streaming-benchmarks/apache-storm-0.10.0/lib/clojure-1.6.0.jar:/home/triparna/bmt2/streaming-benchmarks/apache-storm-0.10.0/lib/disruptor-2.10.4.jar:/home/triparna/bmt2/streaming-benchmarks/apache-storm-0.10.0/lib/log4j-api-2.1.jar:/home/triparna/bmt2/streaming-benchmarks/apache-storm-0.10.0/lib/log4j-core-2.1.jar:/home/triparna/bmt2/streaming-benchmarks/apache-storm-0.10.0/lib/log4j-slf4j-impl-2.1.jar:/home/triparna/bmt2/streaming-benchmarks/apache-storm-0.10.0/lib/slf4j-api-1.7.7.jar:/home/triparna/bmt2/streaming-benchmarks/apache-storm-0.10.0/lib/log4j-over-slf4j-1.6.6.jar:/home/triparna/bmt2/streaming-benchmarks/apache-storm-0.10.0/lib/hadoop-auth-2.4.0.jar:/home/triparna/bmt2/streaming-benchmarks/apache-storm-0.10.0/lib/servlet-api-2.5.jar:/home/triparna/bmt2/streaming-benchmarks/apache-storm-0.10.0/conf:/home/triparna/bmt2/streaming-benchmarks/apache-storm-0.10.0/storm-local/supervisor/stormdist/test-topo-1-1469526995/stormjar.jar
2016-07-26 10:56:40.930 o.a.z.ZooKeeper [INFO] Client environment:java.library.path=/home/triparna/bmt2/streaming-benchmarks/apache-storm-0.10.0/storm-local/supervisor/stormdist/test-topo-1-1469526995/resources/Linux-amd64:/home/triparna/bmt2/streaming-benchmarks/apache-storm-0.10.0/storm-local/supervisor/stormdist/test-topo-1-1469526995/resources:/usr/local/lib:/opt/local/lib:/usr/lib
2016-07-26 10:56:40.930 o.a.z.ZooKeeper [INFO] Client environment:java.io.tmpdir=/tmp
2016-07-26 10:56:40.930 o.a.z.ZooKeeper [INFO] Client environment:java.compiler=<NA>
2016-07-26 10:56:40.930 o.a.z.ZooKeeper [INFO] Client environment:os.name=Linux
2016-07-26 10:56:40.930 o.a.z.ZooKeeper [INFO] Client environment:os.arch=amd64
2016-07-26 10:56:40.930 o.a.z.ZooKeeper [INFO] Client environment:os.version=3.10.0-327.18.2.el7.x86_64
2016-07-26 10:56:40.930 o.a.z.ZooKeeper [INFO] Client environment:user.name=triparna
2016-07-26 10:56:40.930 o.a.z.ZooKeeper [INFO] Client environment:user.home=/home/triparna
2016-07-26 10:56:40.930 o.a.z.ZooKeeper [INFO] Client environment:user.dir=/home/triparna/bmt2/streaming-benchmarks/apache-storm-0.10.0/storm-local/workers/a797f289-1fd1-4999-bf58-b9edffea701c
2016-07-26 10:56:40.931 o.a.z.ZooKeeper [INFO] Initiating client connection, connectString=localhost:9999,localhost:9999, sessionTimeout=20000 watcher=org.apache.curator.ConnectionState@324fcac8
2016-07-26 10:56:40.946 o.a.z.ClientCnxn [INFO] Opening socket connection to server localhost/127.0.0.1:9999. Will not attempt to authenticate using SASL (unknown error)
2016-07-26 10:56:40.947 o.a.z.ClientCnxn [INFO] Socket connection established to localhost/127.0.0.1:9999, initiating session
2016-07-26 10:56:40.948 o.a.c.f.i.CuratorFrameworkImpl [INFO] Starting
2016-07-26 10:56:40.948 o.a.z.ZooKeeper [INFO] Initiating client connection, connectString=localhost:9999 sessionTimeout=20000 watcher=org.apache.curator.ConnectionState@661c236d
2016-07-26 10:56:40.949 o.a.z.ClientCnxn [INFO] Opening socket connection to server localhost/127.0.0.1:9999. Will not attempt to authenticate using SASL (unknown error)
2016-07-26 10:56:40.950 o.a.z.ClientCnxn [INFO] Socket connection established to localhost/127.0.0.1:9999, initiating session
2016-07-26 10:56:40.970 o.a.z.ClientCnxn [INFO] Session establishment complete on server localhost/127.0.0.1:9999, sessionid = 0x15626a17a7b0008, negotiated timeout = 20000
2016-07-26 10:56:40.973 o.a.c.f.s.ConnectionStateManager [INFO] State change: CONNECTED
2016-07-26 10:56:40.985 o.a.z.ClientCnxn [INFO] Session establishment complete on server localhost/127.0.0.1:9999, sessionid = 0x15626a17a7b0009, negotiated timeout = 20000
2016-07-26 10:56:40.985 o.a.c.f.s.ConnectionStateManager [INFO] State change: CONNECTED
2016-07-26 10:56:41.005 s.k.DynamicBrokersReader [INFO] Read partition info from zookeeper: GlobalPartitionInformation{partitionMap={0=node1:9092}}
2016-07-26 10:56:41.007 o.a.c.f.i.CuratorFrameworkImpl [INFO] Starting
2016-07-26 10:56:41.007 o.a.z.ZooKeeper [INFO] Initiating client connection, connectString=localhost:9999 sessionTimeout=20000 watcher=org.apache.curator.ConnectionState@4c9899f4
2016-07-26 10:56:41.009 o.a.z.ClientCnxn [INFO] Opening socket connection to server localhost/127.0.0.1:9999. Will not attempt to authenticate using SASL (unknown error)
2016-07-26 10:56:41.009 o.a.z.ClientCnxn [INFO] Socket connection established to localhost/127.0.0.1:9999, initiating session
2016-07-26 10:56:41.010 b.s.d.executor [INFO] Opened spout ads:(3)
2016-07-26 10:56:41.012 b.s.d.executor [INFO] Activating spout ads:(3)
2016-07-26 10:56:41.013 s.k.ZkCoordinator [INFO] Task [1/1] Refreshing partition manager connections
2016-07-26 10:56:41.027 o.a.z.ClientCnxn [INFO] Session establishment complete on server localhost/127.0.0.1:9999, sessionid = 0x15626a17a7b000a, negotiated timeout = 20000
2016-07-26 10:56:41.027 o.a.c.f.s.ConnectionStateManager [INFO] State change: CONNECTED
2016-07-26 10:56:41.029 s.k.DynamicBrokersReader [INFO] Read partition info from zookeeper: GlobalPartitionInformation{partitionMap={0=node1:9092}}
2016-07-26 10:56:41.030 s.k.KafkaUtils [INFO] Task [1/1] assigned [Partition{host=node1:9092, partition=0}]
2016-07-26 10:56:41.031 s.k.ZkCoordinator [INFO] Task [1/1] Deleted partition managers: []
2016-07-26 10:56:41.031 s.k.ZkCoordinator [INFO] Task [1/1] New partition managers: [Partition{host=node1:9092, partition=0}]
2016-07-26 10:56:41.274 s.k.PartitionManager [INFO] Read partition information from: /ad-events/a25d5505-1a71-4a0e-a87d-50cdcb26daf7/partition_0  --> null
2016-07-26 10:56:41.349 s.k.PartitionManager [INFO] No partition information found, using configuration to determine offset
2016-07-26 10:56:41.349 s.k.PartitionManager [INFO] Last commit offset from zookeeper: 0
2016-07-26 10:56:41.349 s.k.PartitionManager [INFO] Commit offset 0 is more than 9223372036854775807 behind latest offset 0, resetting to startOffsetTime=-2
2016-07-26 10:56:41.349 s.k.PartitionManager [INFO] Starting Kafka node1:0 from offset 0
2016-07-26 10:56:41.350 s.k.ZkCoordinator [INFO] Task [1/1] Finished refreshing
2016-07-26 10:57:40.894 b.s.m.n.Server [INFO] Getting metrics for server on port 6700
2016-07-26 10:57:41.352 s.k.ZkCoordinator [INFO] Task [1/1] Refreshing partition manager connections
2016-07-26 10:57:41.354 s.k.DynamicBrokersReader [INFO] Read partition info from zookeeper: GlobalPartitionInformation{partitionMap={0=node1:9092}}
2016-07-26 10:57:41.354 s.k.KafkaUtils [INFO] Task [1/1] assigned [Partition{host=node1:9092, partition=0}]
2016-07-26 10:57:41.354 s.k.ZkCoordinator [INFO] Task [1/1] Deleted partition managers: []
2016-07-26 10:57:41.354 s.k.ZkCoordinator [INFO] Task [1/1] New partition managers: []
2016-07-26 10:57:41.354 s.k.ZkCoordinator [INFO] Task [1/1] Finished refreshing
2016-07-26 10:58:40.892 b.s.m.n.Server [INFO] Getting metrics for server on port 6700
2016-07-26 10:58:41.355 s.k.ZkCoordinator [INFO] Task [1/1] Refreshing partition manager connections
2016-07-26 10:58:41.357 s.k.DynamicBrokersReader [INFO] Read partition info from zookeeper: GlobalPartitionInformation{partitionMap={0=node1:9092}}
2016-07-26 10:58:41.357 s.k.KafkaUtils [INFO] Task [1/1] assigned [Partition{host=node1:9092, partition=0}]
2016-07-26 10:58:41.357 s.k.ZkCoordinator [INFO] Task [1/1] Deleted partition managers: []
2016-07-26 10:58:41.357 s.k.ZkCoordinator [INFO] Task [1/1] New partition managers: []
2016-07-26 10:58:41.357 s.k.ZkCoordinator [INFO] Task [1/1] Finished refreshing
2016-07-26 10:59:02.863 b.s.d.executor [INFO] Deactivating spout ads:(3)
2016-07-26 10:59:02.898 b.s.d.worker [INFO] Shutting down worker test-topo-1-1469526995 6d10be4e-08b6-402b-b2af-cc49bfcb9dd2 6700
2016-07-26 10:59:02.899 b.s.d.worker [INFO] Shutting down receive thread
2016-07-26 10:59:02.929 b.s.m.loader [INFO] Shutting down receiving-thread: [test-topo-1-1469526995, 6700]
2016-07-26 10:59:02.929 b.s.m.loader [INFO] Waiting for receiving-thread:[test-topo-1-1469526995, 6700] to die
2016-07-26 10:59:02.930 b.s.m.loader [INFO] Shutdown receiving-thread: [test-topo-1-1469526995, 6700]
2016-07-26 10:59:02.930 b.s.d.worker [INFO] Shut down receive thread
2016-07-26 10:59:02.930 b.s.d.worker [INFO] Terminating messaging context
2016-07-26 10:59:02.931 b.s.d.worker [INFO] Shutting down executors
2016-07-26 10:59:02.931 b.s.d.executor [INFO] Shutting down executor event_projection:[8 8]
2016-07-26 10:59:02.932 b.s.util [INFO] Async loop interrupted!
2016-07-26 10:59:02.933 b.s.util [INFO] Async loop interrupted!
2016-07-26 10:59:02.934 b.s.d.executor [INFO] Shut down executor event_projection:[8 8]
2016-07-26 10:59:02.935 b.s.d.executor [INFO] Shutting down executor __acker:[2 2]
2016-07-26 10:59:02.935 b.s.util [INFO] Async loop interrupted!
2016-07-26 10:59:02.935 b.s.util [INFO] Async loop interrupted!
2016-07-26 10:59:02.936 b.s.d.executor [INFO] Shut down executor __acker:[2 2]
2016-07-26 10:59:02.936 b.s.d.executor [INFO] Shutting down executor event_filter:[7 7]
2016-07-26 10:59:02.936 b.s.util [INFO] Async loop interrupted!
2016-07-26 10:59:02.936 b.s.util [INFO] Async loop interrupted!
2016-07-26 10:59:02.937 b.s.d.executor [INFO] Shut down executor event_filter:[7 7]
2016-07-26 10:59:02.937 b.s.d.executor [INFO] Shutting down executor ads:[3 3]
2016-07-26 10:59:02.937 b.s.util [INFO] Async loop interrupted!
2016-07-26 10:59:02.937 b.s.util [INFO] Async loop interrupted!
2016-07-26 10:59:02.968 b.s.d.executor [INFO] Shut down executor ads:[3 3]
2016-07-26 10:59:02.968 b.s.d.executor [INFO] Shutting down executor __acker:[1 1]
2016-07-26 10:59:02.968 b.s.util [INFO] Async loop interrupted!
2016-07-26 10:59:02.968 b.s.util [INFO] Async loop interrupted!
2016-07-26 10:59:02.969 b.s.d.executor [INFO] Shut down executor __acker:[1 1]
2016-07-26 10:59:02.969 b.s.d.executor [INFO] Shutting down executor event_deserializer:[6 6]
2016-07-26 10:59:02.969 b.s.util [INFO] Async loop interrupted!
2016-07-26 10:59:02.969 b.s.util [INFO] Async loop interrupted!
2016-07-26 10:59:02.970 b.s.d.executor [INFO] Shut down executor event_deserializer:[6 6]
2016-07-26 10:59:02.970 b.s.d.executor [INFO] Shutting down executor redis_join:[9 9]
2016-07-26 10:59:02.970 b.s.util [INFO] Async loop interrupted!
2016-07-26 10:59:02.970 b.s.util [INFO] Async loop interrupted!
2016-07-26 10:59:02.970 b.s.d.executor [INFO] Shut down executor redis_join:[9 9]
2016-07-26 10:59:02.971 b.s.d.executor [INFO] Shutting down executor __system:[-1 -1]
2016-07-26 10:59:02.971 b.s.util [INFO] Async loop interrupted!
2016-07-26 10:59:02.971 b.s.util [INFO] Async loop interrupted!
2016-07-26 10:59:02.972 b.s.d.executor [INFO] Shut down executor __system:[-1 -1]
2016-07-26 10:59:02.972 b.s.d.executor [INFO] Shutting down executor campaign_processor:[5 5]
2016-07-26 10:59:02.972 b.s.util [INFO] Async loop interrupted!
2016-07-26 10:59:02.972 b.s.util [INFO] Async loop interrupted!
2016-07-26 10:59:02.973 b.s.d.executor [INFO] Shut down executor campaign_processor:[5 5]
2016-07-26 10:59:02.973 b.s.d.executor [INFO] Shutting down executor campaign_processor:[4 4]
2016-07-26 10:59:02.973 b.s.util [INFO] Async loop interrupted!
2016-07-26 10:59:02.974 b.s.util [INFO] Async loop interrupted!
2016-07-26 10:59:02.974 b.s.d.executor [INFO] Shut down executor campaign_processor:[4 4]
2016-07-26 10:59:02.974 b.s.d.worker [INFO] Shut down executors
2016-07-26 10:59:02.979 b.s.d.worker [INFO] Shutting down transfer thread
2016-07-26 10:59:02.980 b.s.util [INFO] Async loop interrupted!
2016-07-26 10:59:02.980 b.s.d.worker [INFO] Shut down transfer thread
2016-07-26 10:59:02.983 b.s.d.worker [INFO] Shutting down default resources
2016-07-26 10:59:02.983 b.s.d.worker [INFO] Shut down default resources
2016-07-26 10:59:02.992 b.s.d.worker [INFO] Disconnecting from storm cluster state context
2016-07-26 10:59:03.001 b.s.d.worker [INFO] Shut down worker test-topo-1-1469526995 6d10be4e-08b6-402b-b2af-cc49bfcb9dd2 6700
