2016-07-28 15:25:39.037 b.s.u.Utils [INFO] Using defaults.yaml from resources
2016-07-28 15:25:39.108 b.s.u.Utils [INFO] Using storm.yaml from resources
2016-07-28 15:25:39.767 o.a.s.s.o.a.z.ZooKeeper [INFO] Client environment:zookeeper.version=3.4.6-1569965, built on 02/20/2014 09:09 GMT
2016-07-28 15:25:39.767 o.a.s.s.o.a.z.ZooKeeper [INFO] Client environment:host.name=node1
2016-07-28 15:25:39.767 o.a.s.s.o.a.z.ZooKeeper [INFO] Client environment:java.version=1.8.0_91
2016-07-28 15:25:39.767 o.a.s.s.o.a.z.ZooKeeper [INFO] Client environment:java.vendor=Oracle Corporation
2016-07-28 15:25:39.767 o.a.s.s.o.a.z.ZooKeeper [INFO] Client environment:java.home=/usr/lib/jvm/java-1.8.0-openjdk-1.8.0.91-0.b14.el7_2.x86_64/jre
2016-07-28 15:25:39.768 o.a.s.s.o.a.z.ZooKeeper [INFO] Client environment:java.class.path=/home/triparna/bmt2/streaming-benchmarks/apache-storm-0.10.0/lib/storm-core-0.10.0.jar:/home/triparna/bmt2/streaming-benchmarks/apache-storm-0.10.0/lib/kryo-2.21.jar:/home/triparna/bmt2/streaming-benchmarks/apache-storm-0.10.0/lib/reflectasm-1.07-shaded.jar:/home/triparna/bmt2/streaming-benchmarks/apache-storm-0.10.0/lib/asm-4.0.jar:/home/triparna/bmt2/streaming-benchmarks/apache-storm-0.10.0/lib/minlog-1.2.jar:/home/triparna/bmt2/streaming-benchmarks/apache-storm-0.10.0/lib/clojure-1.6.0.jar:/home/triparna/bmt2/streaming-benchmarks/apache-storm-0.10.0/lib/disruptor-2.10.4.jar:/home/triparna/bmt2/streaming-benchmarks/apache-storm-0.10.0/lib/log4j-api-2.1.jar:/home/triparna/bmt2/streaming-benchmarks/apache-storm-0.10.0/lib/log4j-core-2.1.jar:/home/triparna/bmt2/streaming-benchmarks/apache-storm-0.10.0/lib/log4j-slf4j-impl-2.1.jar:/home/triparna/bmt2/streaming-benchmarks/apache-storm-0.10.0/lib/slf4j-api-1.7.7.jar:/home/triparna/bmt2/streaming-benchmarks/apache-storm-0.10.0/lib/log4j-over-slf4j-1.6.6.jar:/home/triparna/bmt2/streaming-benchmarks/apache-storm-0.10.0/lib/hadoop-auth-2.4.0.jar:/home/triparna/bmt2/streaming-benchmarks/apache-storm-0.10.0/lib/servlet-api-2.5.jar:/home/triparna/bmt2/streaming-benchmarks/apache-storm-0.10.0/conf:/home/triparna/bmt2/streaming-benchmarks/apache-storm-0.10.0/storm-local/supervisor/stormdist/test-topo-1-1469715936/stormjar.jar
2016-07-28 15:25:39.768 o.a.s.s.o.a.z.ZooKeeper [INFO] Client environment:java.library.path=/home/triparna/bmt2/streaming-benchmarks/apache-storm-0.10.0/storm-local/supervisor/stormdist/test-topo-1-1469715936/resources/Linux-amd64:/home/triparna/bmt2/streaming-benchmarks/apache-storm-0.10.0/storm-local/supervisor/stormdist/test-topo-1-1469715936/resources:/usr/local/lib:/opt/local/lib:/usr/lib
2016-07-28 15:25:39.768 o.a.s.s.o.a.z.ZooKeeper [INFO] Client environment:java.io.tmpdir=/tmp
2016-07-28 15:25:39.768 o.a.s.s.o.a.z.ZooKeeper [INFO] Client environment:java.compiler=<NA>
2016-07-28 15:25:39.768 o.a.s.s.o.a.z.ZooKeeper [INFO] Client environment:os.name=Linux
2016-07-28 15:25:39.768 o.a.s.s.o.a.z.ZooKeeper [INFO] Client environment:os.arch=amd64
2016-07-28 15:25:39.768 o.a.s.s.o.a.z.ZooKeeper [INFO] Client environment:os.version=3.10.0-327.18.2.el7.x86_64
2016-07-28 15:25:39.769 o.a.s.s.o.a.z.ZooKeeper [INFO] Client environment:user.name=triparna
2016-07-28 15:25:39.769 o.a.s.s.o.a.z.ZooKeeper [INFO] Client environment:user.home=/home/triparna
2016-07-28 15:25:39.769 o.a.s.s.o.a.z.ZooKeeper [INFO] Client environment:user.dir=/home/triparna/bmt2/streaming-benchmarks/apache-storm-0.10.0/storm-local/workers/5f58b5ce-8417-4b6a-b8a5-e403f4e66d35
2016-07-28 15:25:39.775 o.a.s.s.o.a.z.s.ZooKeeperServer [INFO] Server environment:zookeeper.version=3.4.6-1569965, built on 02/20/2014 09:09 GMT
2016-07-28 15:25:39.775 o.a.s.s.o.a.z.s.ZooKeeperServer [INFO] Server environment:host.name=node1
2016-07-28 15:25:39.775 o.a.s.s.o.a.z.s.ZooKeeperServer [INFO] Server environment:java.version=1.8.0_91
2016-07-28 15:25:39.776 o.a.s.s.o.a.z.s.ZooKeeperServer [INFO] Server environment:java.vendor=Oracle Corporation
2016-07-28 15:25:39.776 o.a.s.s.o.a.z.s.ZooKeeperServer [INFO] Server environment:java.home=/usr/lib/jvm/java-1.8.0-openjdk-1.8.0.91-0.b14.el7_2.x86_64/jre
2016-07-28 15:25:39.776 o.a.s.s.o.a.z.s.ZooKeeperServer [INFO] Server environment:java.class.path=/home/triparna/bmt2/streaming-benchmarks/apache-storm-0.10.0/lib/storm-core-0.10.0.jar:/home/triparna/bmt2/streaming-benchmarks/apache-storm-0.10.0/lib/kryo-2.21.jar:/home/triparna/bmt2/streaming-benchmarks/apache-storm-0.10.0/lib/reflectasm-1.07-shaded.jar:/home/triparna/bmt2/streaming-benchmarks/apache-storm-0.10.0/lib/asm-4.0.jar:/home/triparna/bmt2/streaming-benchmarks/apache-storm-0.10.0/lib/minlog-1.2.jar:/home/triparna/bmt2/streaming-benchmarks/apache-storm-0.10.0/lib/clojure-1.6.0.jar:/home/triparna/bmt2/streaming-benchmarks/apache-storm-0.10.0/lib/disruptor-2.10.4.jar:/home/triparna/bmt2/streaming-benchmarks/apache-storm-0.10.0/lib/log4j-api-2.1.jar:/home/triparna/bmt2/streaming-benchmarks/apache-storm-0.10.0/lib/log4j-core-2.1.jar:/home/triparna/bmt2/streaming-benchmarks/apache-storm-0.10.0/lib/log4j-slf4j-impl-2.1.jar:/home/triparna/bmt2/streaming-benchmarks/apache-storm-0.10.0/lib/slf4j-api-1.7.7.jar:/home/triparna/bmt2/streaming-benchmarks/apache-storm-0.10.0/lib/log4j-over-slf4j-1.6.6.jar:/home/triparna/bmt2/streaming-benchmarks/apache-storm-0.10.0/lib/hadoop-auth-2.4.0.jar:/home/triparna/bmt2/streaming-benchmarks/apache-storm-0.10.0/lib/servlet-api-2.5.jar:/home/triparna/bmt2/streaming-benchmarks/apache-storm-0.10.0/conf:/home/triparna/bmt2/streaming-benchmarks/apache-storm-0.10.0/storm-local/supervisor/stormdist/test-topo-1-1469715936/stormjar.jar
2016-07-28 15:25:39.776 o.a.s.s.o.a.z.s.ZooKeeperServer [INFO] Server environment:java.library.path=/home/triparna/bmt2/streaming-benchmarks/apache-storm-0.10.0/storm-local/supervisor/stormdist/test-topo-1-1469715936/resources/Linux-amd64:/home/triparna/bmt2/streaming-benchmarks/apache-storm-0.10.0/storm-local/supervisor/stormdist/test-topo-1-1469715936/resources:/usr/local/lib:/opt/local/lib:/usr/lib
2016-07-28 15:25:39.776 o.a.s.s.o.a.z.s.ZooKeeperServer [INFO] Server environment:java.io.tmpdir=/tmp
2016-07-28 15:25:39.777 o.a.s.s.o.a.z.s.ZooKeeperServer [INFO] Server environment:java.compiler=<NA>
2016-07-28 15:25:39.777 o.a.s.s.o.a.z.s.ZooKeeperServer [INFO] Server environment:os.name=Linux
2016-07-28 15:25:39.777 o.a.s.s.o.a.z.s.ZooKeeperServer [INFO] Server environment:os.arch=amd64
2016-07-28 15:25:39.777 o.a.s.s.o.a.z.s.ZooKeeperServer [INFO] Server environment:os.version=3.10.0-327.18.2.el7.x86_64
2016-07-28 15:25:39.777 o.a.s.s.o.a.z.s.ZooKeeperServer [INFO] Server environment:user.name=triparna
2016-07-28 15:25:39.777 o.a.s.s.o.a.z.s.ZooKeeperServer [INFO] Server environment:user.home=/home/triparna
2016-07-28 15:25:39.777 o.a.s.s.o.a.z.s.ZooKeeperServer [INFO] Server environment:user.dir=/home/triparna/bmt2/streaming-benchmarks/apache-storm-0.10.0/storm-local/workers/5f58b5ce-8417-4b6a-b8a5-e403f4e66d35
2016-07-28 15:25:39.906 b.s.u.Utils [INFO] Using defaults.yaml from resources
2016-07-28 15:25:39.915 b.s.u.Utils [INFO] Using storm.yaml from resources
2016-07-28 15:25:39.954 b.s.d.worker [INFO] Launching worker for test-topo-1-1469715936 on 6d10be4e-08b6-402b-b2af-cc49bfcb9dd2:6700 with id 5f58b5ce-8417-4b6a-b8a5-e403f4e66d35 and conf {"topology.builtin.metrics.bucket.size.secs" 60, "nimbus.childopts" "-Xmx1024m", "ui.filter.params" nil, "storm.cluster.mode" "distributed", "storm.messaging.netty.client_worker_threads" 1, "supervisor.run.worker.as.user" false, "topology.max.task.parallelism" nil, "zmq.threads" 1, "storm.group.mapping.service" "backtype.storm.security.auth.ShellBasedGroupsMapping", "transactional.zookeeper.root" "/transactional", "topology.sleep.spout.wait.strategy.time.ms" 1, "drpc.invocations.port" 3773, "topology.multilang.serializer" "backtype.storm.multilang.JsonSerializer", "storm.messaging.netty.server_worker_threads" 1, "topology.max.error.report.per.interval" 5, "storm.thrift.transport" "backtype.storm.security.auth.SimpleTransportPlugin", "zmq.hwm" 0, "storm.principal.tolocal" "backtype.storm.security.auth.DefaultPrincipalToLocal", "supervisor.worker.shutdown.sleep.secs" 1, "storm.zookeeper.retry.times" 5, "ui.actions.enabled" true, "zmq.linger.millis" 5000, "supervisor.enable" true, "topology.stats.sample.rate" 0.05, "storm.messaging.netty.min_wait_ms" 100, "storm.zookeeper.port" 9999, "supervisor.heartbeat.frequency.secs" 5, "topology.enable.message.timeouts" true, "drpc.worker.threads" 64, "drpc.queue.size" 128, "drpc.https.keystore.password" "", "logviewer.port" 8000, "nimbus.reassign" true, "topology.executor.send.buffer.size" 1024, "topology.spout.wait.strategy" "backtype.storm.spout.SleepSpoutWaitStrategy", "ui.host" "0.0.0.0", "storm.nimbus.retry.interval.millis" 2000, "nimbus.inbox.jar.expiration.secs" 3600, "dev.zookeeper.path" "/tmp/dev-storm-zookeeper", "topology.acker.executors" nil, "topology.fall.back.on.java.serialization" true, "storm.zookeeper.servers" ["localhost" "localhost"], "nimbus.thrift.threads" 64, "logviewer.cleanup.age.mins" 10080, "topology.worker.childopts" nil, "topology.classpath" nil, "supervisor.monitor.frequency.secs" 3, "nimbus.credential.renewers.freq.secs" 600, "topology.skip.missing.kryo.registrations" false, "drpc.authorizer.acl.filename" "drpc-auth-acl.yaml", "storm.group.mapping.service.cache.duration.secs" 120, "topology.testing.always.try.serialize" false, "nimbus.monitor.freq.secs" 10, "supervisor.supervisors" [], "topology.tasks" nil, "topology.bolts.outgoing.overflow.buffer.enable" false, "storm.messaging.netty.socket.backlog" 500, "topology.workers" 1, "storm.local.dir" "storm-local", "worker.childopts" "-Xmx768m", "storm.auth.simple-white-list.users" [], "topology.message.timeout.secs" 30, "topology.state.synchronization.timeout.secs" 60, "topology.tuple.serializer" "backtype.storm.serialization.types.ListDelegateSerializer", "supervisor.supervisors.commands" [], "logviewer.childopts" "-Xmx128m", "topology.environment" nil, "topology.debug" false, "storm.messaging.netty.max_retries" 300, "ui.childopts" "-Xmx768m", "storm.zookeeper.session.timeout" 20000, "drpc.childopts" "-Xmx768m", "drpc.http.creds.plugin" "backtype.storm.security.auth.DefaultHttpCredentialsPlugin", "storm.zookeeper.connection.timeout" 15000, "storm.zookeeper.auth.user" nil, "storm.meta.serialization.delegate" "backtype.storm.serialization.GzipThriftSerializationDelegate", "topology.max.spout.pending" nil, "nimbus.supervisor.timeout.secs" 60, "nimbus.task.timeout.secs" 30, "drpc.port" 3772, "storm.zookeeper.retry.intervalceiling.millis" 30000, "nimbus.thrift.port" 6627, "storm.auth.simple-acl.admins" [], "storm.nimbus.retry.times" 5, "supervisor.worker.start.timeout.secs" 120, "storm.zookeeper.retry.interval" 1000, "logs.users" nil, "transactional.zookeeper.port" nil, "drpc.max_buffer_size" 1048576, "task.credentials.poll.secs" 30, "drpc.https.keystore.type" "JKS", "topology.worker.receiver.thread.count" 1, "supervisor.slots.ports" [6700 6701 6702 6703], "topology.transfer.buffer.size" 1024, "topology.worker.shared.thread.pool.size" 4, "drpc.authorizer.acl.strict" false, "nimbus.file.copy.expiration.secs" 600, "topology.executor.receive.buffer.size" 1024, "nimbus.task.launch.secs" 120, "storm.local.mode.zmq" false, "storm.messaging.netty.buffer_size" 5242880, "worker.heartbeat.frequency.secs" 1, "ui.http.creds.plugin" "backtype.storm.security.auth.DefaultHttpCredentialsPlugin", "storm.zookeeper.root" "/storm", "topology.tick.tuple.freq.secs" nil, "drpc.https.port" -1, "task.refresh.poll.secs" 10, "task.heartbeat.frequency.secs" 3, "storm.messaging.netty.max_wait_ms" 1000, "nimbus.impersonation.authorizer" "backtype.storm.security.auth.authorizer.ImpersonationAuthorizer", "drpc.http.port" 3774, "topology.error.throttle.interval.secs" 10, "storm.messaging.transport" "backtype.storm.messaging.netty.Context", "storm.messaging.netty.authentication" false, "topology.kryo.factory" "backtype.storm.serialization.DefaultKryoFactory", "worker.gc.childopts" "", "nimbus.topology.validator" "backtype.storm.nimbus.DefaultTopologyValidator", "nimbus.cleanup.inbox.freq.secs" 600, "ui.users" nil, "transactional.zookeeper.servers" nil, "supervisor.worker.timeout.secs" 30, "storm.zookeeper.auth.password" nil, "supervisor.childopts" "-Xmx256m", "ui.filter" nil, "ui.header.buffer.bytes" 4096, "topology.disruptor.wait.timeout.millis" 1000, "storm.nimbus.retry.intervalceiling.millis" 60000, "topology.trident.batch.emit.interval.millis" 500, "topology.disruptor.wait.strategy" "com.lmax.disruptor.BlockingWaitStrategy", "storm.auth.simple-acl.users" [], "drpc.invocations.threads" 64, "java.library.path" "/usr/local/lib:/opt/local/lib:/usr/lib", "ui.port" 8080, "storm.messaging.netty.transfer.batch.size" 262144, "logviewer.appender.name" "A1", "nimbus.thrift.max_buffer_size" 1048576, "nimbus.host" "localhost", "storm.auth.simple-acl.users.commands" [], "drpc.request.timeout.secs" 600}
2016-07-28 15:25:39.975 b.s.u.StormBoundedExponentialBackoffRetry [INFO] The baseSleepTimeMs [1000] the maxSleepTimeMs [30000] the maxRetries [5]
2016-07-28 15:25:40.011 o.a.s.s.o.a.c.f.i.CuratorFrameworkImpl [INFO] Starting
2016-07-28 15:25:40.013 o.a.s.s.o.a.z.ZooKeeper [INFO] Initiating client connection, connectString=localhost:9999,localhost:9999 sessionTimeout=20000 watcher=org.apache.storm.shade.org.apache.curator.ConnectionState@48284d0e
2016-07-28 15:25:40.025 o.a.s.s.o.a.z.ClientCnxn [INFO] Opening socket connection to server localhost/127.0.0.1:9999. Will not attempt to authenticate using SASL (unknown error)
2016-07-28 15:25:40.078 o.a.s.s.o.a.z.ClientCnxn [INFO] Socket connection established to localhost/127.0.0.1:9999, initiating session
2016-07-28 15:25:40.099 o.a.s.s.o.a.z.ClientCnxn [INFO] Session establishment complete on server localhost/127.0.0.1:9999, sessionid = 0x15631e47af50006, negotiated timeout = 20000
2016-07-28 15:25:40.101 o.a.s.s.o.a.c.f.s.ConnectionStateManager [INFO] State change: CONNECTED
2016-07-28 15:25:40.102 b.s.zookeeper [INFO] Zookeeper state update: :connected:none
2016-07-28 15:25:41.140 o.a.s.s.o.a.z.ZooKeeper [INFO] Session: 0x15631e47af50006 closed
2016-07-28 15:25:41.140 o.a.s.s.o.a.z.ClientCnxn [INFO] EventThread shut down
2016-07-28 15:25:41.142 b.s.u.StormBoundedExponentialBackoffRetry [INFO] The baseSleepTimeMs [1000] the maxSleepTimeMs [30000] the maxRetries [5]
2016-07-28 15:25:41.143 o.a.s.s.o.a.c.f.i.CuratorFrameworkImpl [INFO] Starting
2016-07-28 15:25:41.144 o.a.s.s.o.a.z.ZooKeeper [INFO] Initiating client connection, connectString=localhost:9999,localhost:9999/storm sessionTimeout=20000 watcher=org.apache.storm.shade.org.apache.curator.ConnectionState@65f58c6e
2016-07-28 15:25:41.146 o.a.s.s.o.a.z.ClientCnxn [INFO] Opening socket connection to server localhost/127.0.0.1:9999. Will not attempt to authenticate using SASL (unknown error)
2016-07-28 15:25:41.147 o.a.s.s.o.a.z.ClientCnxn [INFO] Socket connection established to localhost/127.0.0.1:9999, initiating session
2016-07-28 15:25:41.165 o.a.s.s.o.a.z.ClientCnxn [INFO] Session establishment complete on server localhost/127.0.0.1:9999, sessionid = 0x15631e47af50007, negotiated timeout = 20000
2016-07-28 15:25:41.166 o.a.s.s.o.a.c.f.s.ConnectionStateManager [INFO] State change: CONNECTED
2016-07-28 15:25:41.187 b.s.s.a.AuthUtils [INFO] Got AutoCreds []
2016-07-28 15:25:41.190 b.s.d.worker [INFO] Reading Assignments.
2016-07-28 15:25:41.221 b.s.m.TransportFactory [INFO] Storm peer transport plugin:backtype.storm.messaging.netty.Context
2016-07-28 15:25:41.261 b.s.m.n.Server [INFO] Create Netty Server Netty-server-localhost-6700, buffer_size: 5242880, maxWorkers: 1
2016-07-28 15:25:41.353 b.s.d.worker [INFO] Launching receive-thread for 6d10be4e-08b6-402b-b2af-cc49bfcb9dd2:6700
2016-07-28 15:25:41.358 b.s.m.loader [INFO] Starting receive-thread: [stormId: test-topo-1-1469715936, port: 6700, thread-id: 0 ]
2016-07-28 15:25:41.580 b.s.d.executor [INFO] Loading executor event_projection:[8 8]
2016-07-28 15:25:41.593 b.s.d.executor [INFO] Loaded executor tasks event_projection:[8 8]
2016-07-28 15:25:41.601 b.s.d.executor [INFO] Finished loading executor event_projection:[8 8]
2016-07-28 15:25:41.610 b.s.d.executor [INFO] Loading executor __acker:[2 2]
2016-07-28 15:25:41.611 b.s.d.executor [INFO] Loaded executor tasks __acker:[2 2]
2016-07-28 15:25:41.613 b.s.d.executor [INFO] Timeouts disabled for executor __acker:[2 2]
2016-07-28 15:25:41.613 b.s.d.executor [INFO] Finished loading executor __acker:[2 2]
2016-07-28 15:25:41.619 b.s.d.executor [INFO] Loading executor event_filter:[7 7]
2016-07-28 15:25:41.621 b.s.d.executor [INFO] Loaded executor tasks event_filter:[7 7]
2016-07-28 15:25:41.623 b.s.d.executor [INFO] Finished loading executor event_filter:[7 7]
2016-07-28 15:25:41.630 b.s.d.executor [INFO] Loading executor ads:[3 3]
2016-07-28 15:25:41.642 b.s.d.executor [INFO] Loaded executor tasks ads:[3 3]
2016-07-28 15:25:41.649 b.s.d.executor [INFO] Finished loading executor ads:[3 3]
2016-07-28 15:25:41.655 b.s.d.executor [INFO] Loading executor __acker:[1 1]
2016-07-28 15:25:41.656 b.s.d.executor [INFO] Loaded executor tasks __acker:[1 1]
2016-07-28 15:25:41.658 b.s.d.executor [INFO] Timeouts disabled for executor __acker:[1 1]
2016-07-28 15:25:41.658 b.s.d.executor [INFO] Finished loading executor __acker:[1 1]
2016-07-28 15:25:41.664 b.s.d.executor [INFO] Loading executor event_deserializer:[6 6]
2016-07-28 15:25:41.667 b.s.d.executor [INFO] Loaded executor tasks event_deserializer:[6 6]
2016-07-28 15:25:41.668 b.s.d.executor [INFO] Finished loading executor event_deserializer:[6 6]
2016-07-28 15:25:41.674 b.s.d.executor [INFO] Loading executor redis_join:[9 9]
2016-07-28 15:25:41.676 b.s.d.executor [INFO] Loaded executor tasks redis_join:[9 9]
2016-07-28 15:25:41.678 b.s.d.executor [INFO] Finished loading executor redis_join:[9 9]
2016-07-28 15:25:41.683 b.s.d.executor [INFO] Loading executor __system:[-1 -1]
2016-07-28 15:25:41.684 b.s.d.executor [INFO] Loaded executor tasks __system:[-1 -1]
2016-07-28 15:25:41.686 b.s.d.executor [INFO] Finished loading executor __system:[-1 -1]
2016-07-28 15:25:41.692 b.s.d.executor [INFO] Loading executor campaign_processor:[5 5]
2016-07-28 15:25:41.696 b.s.d.executor [INFO] Loaded executor tasks campaign_processor:[5 5]
2016-07-28 15:25:41.698 b.s.d.executor [INFO] Finished loading executor campaign_processor:[5 5]
2016-07-28 15:25:41.704 b.s.d.executor [INFO] Loading executor campaign_processor:[4 4]
2016-07-28 15:25:41.705 b.s.d.executor [INFO] Loaded executor tasks campaign_processor:[4 4]
2016-07-28 15:25:41.706 b.s.d.executor [INFO] Finished loading executor campaign_processor:[4 4]
2016-07-28 15:25:41.716 b.s.d.worker [INFO] Worker has topology config {"topology.builtin.metrics.bucket.size.secs" 60, "nimbus.childopts" "-Xmx1024m", "ui.filter.params" nil, "storm.cluster.mode" "distributed", "storm.messaging.netty.client_worker_threads" 1, "supervisor.run.worker.as.user" false, "topology.max.task.parallelism" nil, "zmq.threads" 1, "storm.group.mapping.service" "backtype.storm.security.auth.ShellBasedGroupsMapping", "transactional.zookeeper.root" "/transactional", "topology.sleep.spout.wait.strategy.time.ms" 1, "drpc.invocations.port" 3773, "topology.multilang.serializer" "backtype.storm.multilang.JsonSerializer", "storm.messaging.netty.server_worker_threads" 1, "topology.max.error.report.per.interval" 5, "storm.thrift.transport" "backtype.storm.security.auth.SimpleTransportPlugin", "zmq.hwm" 0, "storm.principal.tolocal" "backtype.storm.security.auth.DefaultPrincipalToLocal", "supervisor.worker.shutdown.sleep.secs" 1, "storm.zookeeper.retry.times" 5, "ui.actions.enabled" true, "zmq.linger.millis" 5000, "supervisor.enable" true, "topology.stats.sample.rate" 0.05, "storm.messaging.netty.min_wait_ms" 100, "storm.zookeeper.port" 9999, "supervisor.heartbeat.frequency.secs" 5, "topology.enable.message.timeouts" true, "drpc.worker.threads" 64, "drpc.queue.size" 128, "drpc.https.keystore.password" "", "logviewer.port" 8000, "nimbus.reassign" true, "topology.executor.send.buffer.size" 1024, "topology.spout.wait.strategy" "backtype.storm.spout.SleepSpoutWaitStrategy", "ui.host" "0.0.0.0", "topology.submitter.principal" "", "storm.nimbus.retry.interval.millis" 2000, "nimbus.inbox.jar.expiration.secs" 3600, "dev.zookeeper.path" "/tmp/dev-storm-zookeeper", "topology.acker.executors" 2, "topology.fall.back.on.java.serialization" true, "storm.zookeeper.servers" ["localhost" "localhost"], "nimbus.thrift.threads" 64, "logviewer.cleanup.age.mins" 10080, "topology.worker.childopts" nil, "topology.classpath" nil, "supervisor.monitor.frequency.secs" 3, "nimbus.credential.renewers.freq.secs" 600, "topology.skip.missing.kryo.registrations" false, "drpc.authorizer.acl.filename" "drpc-auth-acl.yaml", "storm.group.mapping.service.cache.duration.secs" 120, "topology.testing.always.try.serialize" false, "nimbus.monitor.freq.secs" 10, "supervisor.supervisors" [], "topology.tasks" nil, "topology.bolts.outgoing.overflow.buffer.enable" false, "storm.messaging.netty.socket.backlog" 500, "topology.workers" 1, "storm.local.dir" "storm-local", "worker.childopts" "-Xmx768m", "storm.auth.simple-white-list.users" [], "topology.message.timeout.secs" 30, "topology.state.synchronization.timeout.secs" 60, "topology.tuple.serializer" "backtype.storm.serialization.types.ListDelegateSerializer", "supervisor.supervisors.commands" [], "logviewer.childopts" "-Xmx128m", "topology.environment" nil, "topology.debug" false, "storm.messaging.netty.max_retries" 300, "ui.childopts" "-Xmx768m", "storm.zookeeper.session.timeout" 20000, "drpc.childopts" "-Xmx768m", "drpc.http.creds.plugin" "backtype.storm.security.auth.DefaultHttpCredentialsPlugin", "storm.zookeeper.connection.timeout" 15000, "storm.zookeeper.auth.user" nil, "storm.meta.serialization.delegate" "backtype.storm.serialization.GzipThriftSerializationDelegate", "topology.max.spout.pending" nil, "nimbus.supervisor.timeout.secs" 60, "nimbus.task.timeout.secs" 30, "storm.zookeeper.superACL" nil, "drpc.port" 3772, "storm.zookeeper.retry.intervalceiling.millis" 30000, "nimbus.thrift.port" 6627, "storm.auth.simple-acl.admins" [], "storm.nimbus.retry.times" 5, "supervisor.worker.start.timeout.secs" 120, "storm.zookeeper.retry.interval" 1000, "logs.users" nil, "transactional.zookeeper.port" nil, "drpc.max_buffer_size" 1048576, "task.credentials.poll.secs" 30, "drpc.https.keystore.type" "JKS", "topology.worker.receiver.thread.count" 1, "supervisor.slots.ports" [6700 6701 6702 6703], "topology.transfer.buffer.size" 1024, "topology.worker.shared.thread.pool.size" 4, "drpc.authorizer.acl.strict" false, "nimbus.file.copy.expiration.secs" 600, "topology.executor.receive.buffer.size" 1024, "topology.users" [], "nimbus.task.launch.secs" 120, "storm.local.mode.zmq" false, "storm.messaging.netty.buffer_size" 5242880, "worker.heartbeat.frequency.secs" 1, "ui.http.creds.plugin" "backtype.storm.security.auth.DefaultHttpCredentialsPlugin", "storm.zookeeper.root" "/storm", "topology.submitter.user" "", "topology.tick.tuple.freq.secs" nil, "drpc.https.port" -1, "task.refresh.poll.secs" 10, "task.heartbeat.frequency.secs" 3, "storm.messaging.netty.max_wait_ms" 1000, "nimbus.impersonation.authorizer" "backtype.storm.security.auth.authorizer.ImpersonationAuthorizer", "drpc.http.port" 3774, "topology.error.throttle.interval.secs" 10, "storm.messaging.transport" "backtype.storm.messaging.netty.Context", "storm.messaging.netty.authentication" false, "topology.kryo.factory" "backtype.storm.serialization.DefaultKryoFactory", "topology.kryo.register" nil, "worker.gc.childopts" "", "nimbus.topology.validator" "backtype.storm.nimbus.DefaultTopologyValidator", "nimbus.cleanup.inbox.freq.secs" 600, "ui.users" nil, "transactional.zookeeper.servers" nil, "supervisor.worker.timeout.secs" 30, "storm.zookeeper.auth.password" nil, "supervisor.childopts" "-Xmx256m", "ui.filter" nil, "ui.header.buffer.bytes" 4096, "topology.disruptor.wait.timeout.millis" 1000, "storm.nimbus.retry.intervalceiling.millis" 60000, "topology.trident.batch.emit.interval.millis" 500, "topology.disruptor.wait.strategy" "com.lmax.disruptor.BlockingWaitStrategy", "storm.auth.simple-acl.users" [], "drpc.invocations.threads" 64, "java.library.path" "/usr/local/lib:/opt/local/lib:/usr/lib", "ui.port" 8080, "topology.kryo.decorators" [], "storm.id" "test-topo-1-1469715936", "topology.name" "test-topo", "storm.messaging.netty.transfer.batch.size" 262144, "logviewer.appender.name" "A1", "nimbus.thrift.max_buffer_size" 1048576, "nimbus.host" "localhost", "storm.auth.simple-acl.users.commands" [], "drpc.request.timeout.secs" 600}
2016-07-28 15:25:41.716 b.s.d.worker [INFO] Worker 5f58b5ce-8417-4b6a-b8a5-e403f4e66d35 for storm test-topo-1-1469715936 on 6d10be4e-08b6-402b-b2af-cc49bfcb9dd2:6700 has finished loading
2016-07-28 15:25:42.321 b.s.d.worker [INFO] All connections are ready for worker 6d10be4e-08b6-402b-b2af-cc49bfcb9dd2:6700 with id 5f58b5ce-8417-4b6a-b8a5-e403f4e66d35
2016-07-28 15:25:42.352 b.s.d.executor [INFO] Opening spout ads:(3)
2016-07-28 15:25:42.359 b.s.d.executor [INFO] Preparing bolt __acker:(1)
2016-07-28 15:25:42.363 b.s.d.executor [INFO] Prepared bolt __acker:(1)
2016-07-28 15:25:42.369 b.s.d.executor [INFO] Preparing bolt event_deserializer:(6)
2016-07-28 15:25:42.370 b.s.d.executor [INFO] Prepared bolt event_deserializer:(6)
2016-07-28 15:25:42.379 b.s.d.executor [INFO] Preparing bolt redis_join:(9)
2016-07-28 15:25:42.387 b.s.d.executor [INFO] Preparing bolt __system:(-1)
2016-07-28 15:25:42.390 b.s.d.executor [INFO] Prepared bolt __system:(-1)
2016-07-28 15:25:42.394 b.s.d.executor [INFO] Prepared bolt redis_join:(9)
2016-07-28 15:25:42.399 b.s.d.executor [INFO] Preparing bolt campaign_processor:(5)
2016-07-28 15:25:42.401 b.s.d.executor [INFO] Prepared bolt campaign_processor:(5)
2016-07-28 15:25:42.402 b.s.d.executor [INFO] Preparing bolt event_projection:(8)
2016-07-28 15:25:42.402 b.s.d.executor [INFO] Prepared bolt event_projection:(8)
2016-07-28 15:25:42.407 b.s.d.executor [INFO] Preparing bolt campaign_processor:(4)
2016-07-28 15:25:42.408 b.s.d.executor [INFO] Prepared bolt campaign_processor:(4)
2016-07-28 15:25:42.411 o.a.c.f.i.CuratorFrameworkImpl [INFO] Starting
2016-07-28 15:25:42.414 b.s.d.executor [INFO] Preparing bolt __acker:(2)
2016-07-28 15:25:42.415 b.s.d.executor [INFO] Prepared bolt __acker:(2)
2016-07-28 15:25:42.418 o.a.z.ZooKeeper [INFO] Client environment:zookeeper.version=3.4.6-1569965, built on 02/20/2014 09:09 GMT
2016-07-28 15:25:42.418 o.a.z.ZooKeeper [INFO] Client environment:host.name=node1
2016-07-28 15:25:42.418 o.a.z.ZooKeeper [INFO] Client environment:java.version=1.8.0_91
2016-07-28 15:25:42.419 o.a.z.ZooKeeper [INFO] Client environment:java.vendor=Oracle Corporation
2016-07-28 15:25:42.419 o.a.z.ZooKeeper [INFO] Client environment:java.home=/usr/lib/jvm/java-1.8.0-openjdk-1.8.0.91-0.b14.el7_2.x86_64/jre
2016-07-28 15:25:42.419 o.a.z.ZooKeeper [INFO] Client environment:java.class.path=/home/triparna/bmt2/streaming-benchmarks/apache-storm-0.10.0/lib/storm-core-0.10.0.jar:/home/triparna/bmt2/streaming-benchmarks/apache-storm-0.10.0/lib/kryo-2.21.jar:/home/triparna/bmt2/streaming-benchmarks/apache-storm-0.10.0/lib/reflectasm-1.07-shaded.jar:/home/triparna/bmt2/streaming-benchmarks/apache-storm-0.10.0/lib/asm-4.0.jar:/home/triparna/bmt2/streaming-benchmarks/apache-storm-0.10.0/lib/minlog-1.2.jar:/home/triparna/bmt2/streaming-benchmarks/apache-storm-0.10.0/lib/clojure-1.6.0.jar:/home/triparna/bmt2/streaming-benchmarks/apache-storm-0.10.0/lib/disruptor-2.10.4.jar:/home/triparna/bmt2/streaming-benchmarks/apache-storm-0.10.0/lib/log4j-api-2.1.jar:/home/triparna/bmt2/streaming-benchmarks/apache-storm-0.10.0/lib/log4j-core-2.1.jar:/home/triparna/bmt2/streaming-benchmarks/apache-storm-0.10.0/lib/log4j-slf4j-impl-2.1.jar:/home/triparna/bmt2/streaming-benchmarks/apache-storm-0.10.0/lib/slf4j-api-1.7.7.jar:/home/triparna/bmt2/streaming-benchmarks/apache-storm-0.10.0/lib/log4j-over-slf4j-1.6.6.jar:/home/triparna/bmt2/streaming-benchmarks/apache-storm-0.10.0/lib/hadoop-auth-2.4.0.jar:/home/triparna/bmt2/streaming-benchmarks/apache-storm-0.10.0/lib/servlet-api-2.5.jar:/home/triparna/bmt2/streaming-benchmarks/apache-storm-0.10.0/conf:/home/triparna/bmt2/streaming-benchmarks/apache-storm-0.10.0/storm-local/supervisor/stormdist/test-topo-1-1469715936/stormjar.jar
2016-07-28 15:25:42.419 o.a.z.ZooKeeper [INFO] Client environment:java.library.path=/home/triparna/bmt2/streaming-benchmarks/apache-storm-0.10.0/storm-local/supervisor/stormdist/test-topo-1-1469715936/resources/Linux-amd64:/home/triparna/bmt2/streaming-benchmarks/apache-storm-0.10.0/storm-local/supervisor/stormdist/test-topo-1-1469715936/resources:/usr/local/lib:/opt/local/lib:/usr/lib
2016-07-28 15:25:42.419 o.a.z.ZooKeeper [INFO] Client environment:java.io.tmpdir=/tmp
2016-07-28 15:25:42.419 o.a.z.ZooKeeper [INFO] Client environment:java.compiler=<NA>
2016-07-28 15:25:42.419 o.a.z.ZooKeeper [INFO] Client environment:os.name=Linux
2016-07-28 15:25:42.419 o.a.z.ZooKeeper [INFO] Client environment:os.arch=amd64
2016-07-28 15:25:42.419 o.a.z.ZooKeeper [INFO] Client environment:os.version=3.10.0-327.18.2.el7.x86_64
2016-07-28 15:25:42.419 o.a.z.ZooKeeper [INFO] Client environment:user.name=triparna
2016-07-28 15:25:42.420 o.a.z.ZooKeeper [INFO] Client environment:user.home=/home/triparna
2016-07-28 15:25:42.420 o.a.z.ZooKeeper [INFO] Client environment:user.dir=/home/triparna/bmt2/streaming-benchmarks/apache-storm-0.10.0/storm-local/workers/5f58b5ce-8417-4b6a-b8a5-e403f4e66d35
2016-07-28 15:25:42.421 o.a.z.ZooKeeper [INFO] Initiating client connection, connectString=localhost:9999,localhost:9999, sessionTimeout=20000 watcher=org.apache.curator.ConnectionState@4e93f78f
2016-07-28 15:25:42.424 b.s.d.executor [INFO] Preparing bolt event_filter:(7)
2016-07-28 15:25:42.425 b.s.d.executor [INFO] Prepared bolt event_filter:(7)
2016-07-28 15:25:42.434 o.a.z.ClientCnxn [INFO] Opening socket connection to server localhost/127.0.0.1:9999. Will not attempt to authenticate using SASL (unknown error)
2016-07-28 15:25:42.435 o.a.z.ClientCnxn [INFO] Socket connection established to localhost/127.0.0.1:9999, initiating session
2016-07-28 15:25:42.435 o.a.c.f.i.CuratorFrameworkImpl [INFO] Starting
2016-07-28 15:25:42.436 o.a.z.ZooKeeper [INFO] Initiating client connection, connectString=localhost:9999 sessionTimeout=20000 watcher=org.apache.curator.ConnectionState@3b1b4f8c
2016-07-28 15:25:42.437 o.a.z.ClientCnxn [INFO] Opening socket connection to server localhost/127.0.0.1:9999. Will not attempt to authenticate using SASL (unknown error)
2016-07-28 15:25:42.437 o.a.z.ClientCnxn [INFO] Socket connection established to localhost/127.0.0.1:9999, initiating session
2016-07-28 15:25:42.458 o.a.z.ClientCnxn [INFO] Session establishment complete on server localhost/127.0.0.1:9999, sessionid = 0x15631e47af50008, negotiated timeout = 20000
2016-07-28 15:25:42.458 o.a.z.ClientCnxn [INFO] Session establishment complete on server localhost/127.0.0.1:9999, sessionid = 0x15631e47af50009, negotiated timeout = 20000
2016-07-28 15:25:42.462 o.a.c.f.s.ConnectionStateManager [INFO] State change: CONNECTED
2016-07-28 15:25:42.462 o.a.c.f.s.ConnectionStateManager [INFO] State change: CONNECTED
2016-07-28 15:25:43.489 s.k.DynamicBrokersReader [INFO] Read partition info from zookeeper: GlobalPartitionInformation{partitionMap={0=node1:9092}}
2016-07-28 15:25:43.491 o.a.c.f.i.CuratorFrameworkImpl [INFO] Starting
2016-07-28 15:25:43.491 o.a.z.ZooKeeper [INFO] Initiating client connection, connectString=localhost:9999 sessionTimeout=20000 watcher=org.apache.curator.ConnectionState@7357fdc7
2016-07-28 15:25:43.493 o.a.z.ClientCnxn [INFO] Opening socket connection to server localhost/127.0.0.1:9999. Will not attempt to authenticate using SASL (unknown error)
2016-07-28 15:25:43.493 b.s.d.executor [INFO] Opened spout ads:(3)
2016-07-28 15:25:43.494 o.a.z.ClientCnxn [INFO] Socket connection established to localhost/127.0.0.1:9999, initiating session
2016-07-28 15:25:43.496 b.s.d.executor [INFO] Activating spout ads:(3)
2016-07-28 15:25:43.496 s.k.ZkCoordinator [INFO] Task [1/1] Refreshing partition manager connections
2016-07-28 15:25:43.515 o.a.z.ClientCnxn [INFO] Session establishment complete on server localhost/127.0.0.1:9999, sessionid = 0x15631e47af5000a, negotiated timeout = 20000
2016-07-28 15:25:43.515 o.a.c.f.s.ConnectionStateManager [INFO] State change: CONNECTED
2016-07-28 15:25:43.519 s.k.DynamicBrokersReader [INFO] Read partition info from zookeeper: GlobalPartitionInformation{partitionMap={0=node1:9092}}
2016-07-28 15:25:43.520 s.k.KafkaUtils [INFO] Task [1/1] assigned [Partition{host=node1:9092, partition=0}]
2016-07-28 15:25:43.521 s.k.ZkCoordinator [INFO] Task [1/1] Deleted partition managers: []
2016-07-28 15:25:43.521 s.k.ZkCoordinator [INFO] Task [1/1] New partition managers: [Partition{host=node1:9092, partition=0}]
2016-07-28 15:25:43.729 s.k.PartitionManager [INFO] Read partition information from: /ad-events/75936e5e-f19e-4d08-afc3-3953e4ed4337/partition_0  --> null
2016-07-28 15:25:43.791 s.k.PartitionManager [INFO] No partition information found, using configuration to determine offset
2016-07-28 15:25:43.792 s.k.PartitionManager [INFO] Last commit offset from zookeeper: 0
2016-07-28 15:25:43.792 s.k.PartitionManager [INFO] Commit offset 0 is more than 9223372036854775807 behind latest offset 0, resetting to startOffsetTime=-2
2016-07-28 15:25:43.792 s.k.PartitionManager [INFO] Starting Kafka node1:0 from offset 0
2016-07-28 15:25:43.793 s.k.ZkCoordinator [INFO] Task [1/1] Finished refreshing
2016-07-28 15:26:42.392 b.s.m.n.Server [INFO] Getting metrics for server on port 6700
2016-07-28 15:26:43.794 s.k.ZkCoordinator [INFO] Task [1/1] Refreshing partition manager connections
2016-07-28 15:26:43.796 s.k.DynamicBrokersReader [INFO] Read partition info from zookeeper: GlobalPartitionInformation{partitionMap={0=node1:9092}}
2016-07-28 15:26:43.796 s.k.KafkaUtils [INFO] Task [1/1] assigned [Partition{host=node1:9092, partition=0}]
2016-07-28 15:26:43.796 s.k.ZkCoordinator [INFO] Task [1/1] Deleted partition managers: []
2016-07-28 15:26:43.796 s.k.ZkCoordinator [INFO] Task [1/1] New partition managers: []
2016-07-28 15:26:43.796 s.k.ZkCoordinator [INFO] Task [1/1] Finished refreshing
2016-07-28 15:27:42.391 b.s.m.n.Server [INFO] Getting metrics for server on port 6700
2016-07-28 15:27:43.797 s.k.ZkCoordinator [INFO] Task [1/1] Refreshing partition manager connections
2016-07-28 15:27:43.799 s.k.DynamicBrokersReader [INFO] Read partition info from zookeeper: GlobalPartitionInformation{partitionMap={0=node1:9092}}
2016-07-28 15:27:43.799 s.k.KafkaUtils [INFO] Task [1/1] assigned [Partition{host=node1:9092, partition=0}]
2016-07-28 15:27:43.799 s.k.ZkCoordinator [INFO] Task [1/1] Deleted partition managers: []
2016-07-28 15:27:43.799 s.k.ZkCoordinator [INFO] Task [1/1] New partition managers: []
2016-07-28 15:27:43.799 s.k.ZkCoordinator [INFO] Task [1/1] Finished refreshing
2016-07-28 15:28:04.270 b.s.d.worker [INFO] Shutting down worker test-topo-1-1469715936 6d10be4e-08b6-402b-b2af-cc49bfcb9dd2 6700
2016-07-28 15:28:04.270 b.s.d.worker [INFO] Shutting down receive thread
2016-07-28 15:28:04.301 b.s.m.loader [INFO] Shutting down receiving-thread: [test-topo-1-1469715936, 6700]
2016-07-28 15:28:04.301 b.s.m.loader [INFO] Waiting for receiving-thread:[test-topo-1-1469715936, 6700] to die
2016-07-28 15:28:04.302 b.s.m.loader [INFO] Shutdown receiving-thread: [test-topo-1-1469715936, 6700]
2016-07-28 15:28:04.302 b.s.d.worker [INFO] Shut down receive thread
2016-07-28 15:28:04.302 b.s.d.worker [INFO] Terminating messaging context
2016-07-28 15:28:04.302 b.s.d.worker [INFO] Shutting down executors
2016-07-28 15:28:04.303 b.s.d.executor [INFO] Shutting down executor event_projection:[8 8]
2016-07-28 15:28:04.304 b.s.util [INFO] Async loop interrupted!
2016-07-28 15:28:04.304 b.s.util [INFO] Async loop interrupted!
2016-07-28 15:28:04.306 b.s.d.executor [INFO] Shut down executor event_projection:[8 8]
2016-07-28 15:28:04.306 b.s.d.executor [INFO] Shutting down executor __acker:[2 2]
2016-07-28 15:28:04.306 b.s.util [INFO] Async loop interrupted!
2016-07-28 15:28:04.306 b.s.util [INFO] Async loop interrupted!
2016-07-28 15:28:04.307 b.s.d.executor [INFO] Shut down executor __acker:[2 2]
2016-07-28 15:28:04.307 b.s.d.executor [INFO] Shutting down executor event_filter:[7 7]
2016-07-28 15:28:04.308 b.s.util [INFO] Async loop interrupted!
2016-07-28 15:28:04.308 b.s.util [INFO] Async loop interrupted!
2016-07-28 15:28:04.308 b.s.d.executor [INFO] Shut down executor event_filter:[7 7]
2016-07-28 15:28:04.308 b.s.d.executor [INFO] Shutting down executor ads:[3 3]
2016-07-28 15:28:04.309 b.s.util [INFO] Async loop interrupted!
2016-07-28 15:28:04.309 b.s.util [INFO] Async loop interrupted!
2016-07-28 15:28:04.352 b.s.d.executor [INFO] Shut down executor ads:[3 3]
2016-07-28 15:28:04.352 b.s.d.executor [INFO] Shutting down executor __acker:[1 1]
2016-07-28 15:28:04.353 b.s.util [INFO] Async loop interrupted!
2016-07-28 15:28:04.353 b.s.util [INFO] Async loop interrupted!
2016-07-28 15:28:04.353 b.s.d.executor [INFO] Shut down executor __acker:[1 1]
2016-07-28 15:28:04.354 b.s.d.executor [INFO] Shutting down executor event_deserializer:[6 6]
2016-07-28 15:28:04.354 b.s.util [INFO] Async loop interrupted!
2016-07-28 15:28:04.354 b.s.util [INFO] Async loop interrupted!
2016-07-28 15:28:04.354 b.s.d.executor [INFO] Shut down executor event_deserializer:[6 6]
2016-07-28 15:28:04.355 b.s.d.executor [INFO] Shutting down executor redis_join:[9 9]
2016-07-28 15:28:04.355 b.s.util [INFO] Async loop interrupted!
2016-07-28 15:28:04.355 b.s.util [INFO] Async loop interrupted!
2016-07-28 15:28:04.356 b.s.d.executor [INFO] Shut down executor redis_join:[9 9]
2016-07-28 15:28:04.356 b.s.d.executor [INFO] Shutting down executor __system:[-1 -1]
2016-07-28 15:28:04.357 b.s.util [INFO] Async loop interrupted!
2016-07-28 15:28:04.357 b.s.util [INFO] Async loop interrupted!
2016-07-28 15:28:04.357 b.s.d.executor [INFO] Shut down executor __system:[-1 -1]
2016-07-28 15:28:04.358 b.s.d.executor [INFO] Shutting down executor campaign_processor:[5 5]
2016-07-28 15:28:04.358 b.s.util [INFO] Async loop interrupted!
2016-07-28 15:28:04.358 b.s.util [INFO] Async loop interrupted!
2016-07-28 15:28:04.358 b.s.d.executor [INFO] Shut down executor campaign_processor:[5 5]
2016-07-28 15:28:04.358 b.s.d.executor [INFO] Shutting down executor campaign_processor:[4 4]
2016-07-28 15:28:04.359 b.s.util [INFO] Async loop interrupted!
2016-07-28 15:28:04.359 b.s.util [INFO] Async loop interrupted!
2016-07-28 15:28:04.359 b.s.d.executor [INFO] Shut down executor campaign_processor:[4 4]
2016-07-28 15:28:04.359 b.s.d.worker [INFO] Shut down executors
2016-07-28 15:28:04.365 b.s.d.worker [INFO] Shutting down transfer thread
2016-07-28 15:28:04.365 b.s.util [INFO] Async loop interrupted!
2016-07-28 15:28:04.365 b.s.d.worker [INFO] Shut down transfer thread
2016-07-28 15:28:04.367 b.s.d.worker [INFO] Shutting down default resources
2016-07-28 15:28:04.368 b.s.d.worker [INFO] Shut down default resources
2016-07-28 15:28:04.393 b.s.d.worker [INFO] Disconnecting from storm cluster state context
2016-07-28 15:28:04.410 b.s.d.worker [INFO] Shut down worker test-topo-1-1469715936 6d10be4e-08b6-402b-b2af-cc49bfcb9dd2 6700
