2016-07-06 01:34:13,857 ERROR Attempted to append to non-started appender syslog
2016-07-06 01:51:13,050 ERROR Unable to write to stream /home/triparna/bmt2/streaming-benchmarks/apache-storm-0.10.0/logs/test-topo-1-1467764431-worker-6700.log for appender A1
2016-07-06 01:51:13,051 ERROR An exception occurred processing Appender A1 org.apache.logging.log4j.core.appender.AppenderLoggingException: Error flushing stream /home/triparna/bmt2/streaming-benchmarks/apache-storm-0.10.0/logs/test-topo-1-1467764431-worker-6700.log
	at org.apache.logging.log4j.core.appender.OutputStreamManager.flush(OutputStreamManager.java:159)
	at org.apache.logging.log4j.core.appender.AbstractOutputStreamAppender.append(AbstractOutputStreamAppender.java:112)
	at org.apache.logging.log4j.core.appender.RollingFileAppender.append(RollingFileAppender.java:88)
	at org.apache.logging.log4j.core.config.AppenderControl.callAppender(AppenderControl.java:99)
	at org.apache.logging.log4j.core.config.LoggerConfig.callAppenders(LoggerConfig.java:430)
	at org.apache.logging.log4j.core.config.LoggerConfig.log(LoggerConfig.java:409)
	at org.apache.logging.log4j.core.config.LoggerConfig.log(LoggerConfig.java:367)
	at org.apache.logging.log4j.core.Logger.logMessage(Logger.java:112)
	at org.apache.logging.log4j.spi.AbstractLogger.logMessage(AbstractLogger.java:727)
	at org.apache.logging.log4j.spi.AbstractLogger.logIfEnabled(AbstractLogger.java:716)
	at org.apache.logging.slf4j.Log4jLogger.info(Log4jLogger.java:198)
	at org.apache.storm.shade.clojure.tools.logging$eval1$fn__7.invoke(NO_SOURCE_FILE:0)
	at org.apache.storm.shade.clojure.tools.logging.impl$fn__28$G__8__39.invoke(impl.clj:16)
	at org.apache.storm.shade.clojure.tools.logging$log_STAR_.invoke(logging.clj:59)
	at backtype.storm.daemon.worker$fn__7098$exec_fn__1236__auto__$reify__7100$shutdown_STAR___7118.invoke(worker.clj:463)
	at backtype.storm.daemon.worker$fn__7098$exec_fn__1236__auto__$reify$reify__7144.shutdown(worker.clj:500)
	at sun.reflect.NativeMethodAccessorImpl.invoke0(Native Method)
	at sun.reflect.NativeMethodAccessorImpl.invoke(NativeMethodAccessorImpl.java:62)
	at sun.reflect.DelegatingMethodAccessorImpl.invoke(DelegatingMethodAccessorImpl.java:43)
	at java.lang.reflect.Method.invoke(Method.java:498)
	at clojure.lang.Reflector.invokeMatchingMethod(Reflector.java:93)
	at clojure.lang.Reflector.invokeNoArgInstanceMember(Reflector.java:313)
	at backtype.storm.daemon.worker$_main$fn__7192.invoke(worker.clj:543)
	at backtype.storm.util$add_shutdown_hook_with_force_kill_in_1_sec$fn__482.invoke(util.clj:456)
	at clojure.lang.AFn.run(AFn.java:22)
	at java.lang.Thread.run(Thread.java:745)
Caused by: java.io.IOException: Stream Closed
	at java.io.FileOutputStream.writeBytes(Native Method)
	at java.io.FileOutputStream.write(FileOutputStream.java:326)
	at java.io.BufferedOutputStream.flushBuffer(BufferedOutputStream.java:82)
	at java.io.BufferedOutputStream.flush(BufferedOutputStream.java:140)
	at org.apache.logging.log4j.core.appender.OutputStreamManager.flush(OutputStreamManager.java:156)
	... 25 more

2016-07-06 01:51:13,054 ERROR Attempted to append to non-started appender syslog
2016-07-06 01:55:39,726 FATAL Unable to register shutdown hook because JVM is shutting down.
2016-07-06 01:55:39,748 FATAL Unable to register shutdown hook because JVM is shutting down.
2016-07-06 02:10:55,075 ERROR Attempted to append to non-started appender syslog
2016-07-06 02:41:52,312 ERROR Unable to write to stream /home/triparna/bmt2/streaming-benchmarks/apache-storm-0.10.0/logs/test-topo-1-1467764431-worker-6700.log for appender A1
2016-07-06 02:41:52,313 ERROR An exception occurred processing Appender A1 org.apache.logging.log4j.core.appender.AppenderLoggingException: Error flushing stream /home/triparna/bmt2/streaming-benchmarks/apache-storm-0.10.0/logs/test-topo-1-1467764431-worker-6700.log
	at org.apache.logging.log4j.core.appender.OutputStreamManager.flush(OutputStreamManager.java:159)
	at org.apache.logging.log4j.core.appender.AbstractOutputStreamAppender.append(AbstractOutputStreamAppender.java:112)
	at org.apache.logging.log4j.core.appender.RollingFileAppender.append(RollingFileAppender.java:88)
	at org.apache.logging.log4j.core.config.AppenderControl.callAppender(AppenderControl.java:99)
	at org.apache.logging.log4j.core.config.LoggerConfig.callAppenders(LoggerConfig.java:430)
	at org.apache.logging.log4j.core.config.LoggerConfig.log(LoggerConfig.java:409)
	at org.apache.logging.log4j.core.config.LoggerConfig.log(LoggerConfig.java:367)
	at org.apache.logging.log4j.core.Logger.logMessage(Logger.java:112)
	at org.apache.logging.log4j.spi.AbstractLogger.logMessage(AbstractLogger.java:727)
	at org.apache.logging.log4j.spi.AbstractLogger.logIfEnabled(AbstractLogger.java:716)
	at org.apache.logging.slf4j.Log4jLogger.info(Log4jLogger.java:198)
	at org.apache.storm.shade.clojure.tools.logging$eval1$fn__7.invoke(NO_SOURCE_FILE:0)
	at org.apache.storm.shade.clojure.tools.logging.impl$fn__28$G__8__39.invoke(impl.clj:16)
	at org.apache.storm.shade.clojure.tools.logging$log_STAR_.invoke(logging.clj:59)
	at backtype.storm.daemon.worker$fn__7098$exec_fn__1236__auto__$reify__7100$shutdown_STAR___7118.invoke(worker.clj:463)
	at backtype.storm.daemon.worker$fn__7098$exec_fn__1236__auto__$reify$reify__7144.shutdown(worker.clj:500)
	at sun.reflect.NativeMethodAccessorImpl.invoke0(Native Method)
	at sun.reflect.NativeMethodAccessorImpl.invoke(NativeMethodAccessorImpl.java:62)
	at sun.reflect.DelegatingMethodAccessorImpl.invoke(DelegatingMethodAccessorImpl.java:43)
	at java.lang.reflect.Method.invoke(Method.java:498)
	at clojure.lang.Reflector.invokeMatchingMethod(Reflector.java:93)
	at clojure.lang.Reflector.invokeNoArgInstanceMember(Reflector.java:313)
	at backtype.storm.daemon.worker$_main$fn__7192.invoke(worker.clj:543)
	at backtype.storm.util$add_shutdown_hook_with_force_kill_in_1_sec$fn__482.invoke(util.clj:456)
	at clojure.lang.AFn.run(AFn.java:22)
	at java.lang.Thread.run(Thread.java:745)
Caused by: java.io.IOException: Stream Closed
	at java.io.FileOutputStream.writeBytes(Native Method)
	at java.io.FileOutputStream.write(FileOutputStream.java:326)
	at java.io.BufferedOutputStream.flushBuffer(BufferedOutputStream.java:82)
	at java.io.BufferedOutputStream.flush(BufferedOutputStream.java:140)
	at org.apache.logging.log4j.core.appender.OutputStreamManager.flush(OutputStreamManager.java:156)
	... 25 more

2016-07-06 02:41:52,316 ERROR Attempted to append to non-started appender syslog
2016-07-06 02:57:25,061 ERROR Attempted to append to non-started appender syslog
2016-07-06 02:59:37,241 ERROR Attempted to append to non-started appender syslog
2016-07-06 03:16:24,912 ERROR Attempted to append to non-started appender syslog
2016-07-06 03:43:10,258 ERROR Attempted to append to non-started appender syslog
2016-07-06 03:45:08,490 ERROR Unable to write to stream /home/triparna/bmt2/streaming-benchmarks/apache-storm-0.10.0/logs/test-topo-1-1467764431-worker-6700.log for appender A1
2016-07-06 03:45:08,491 ERROR An exception occurred processing Appender A1 org.apache.logging.log4j.core.appender.AppenderLoggingException: Error flushing stream /home/triparna/bmt2/streaming-benchmarks/apache-storm-0.10.0/logs/test-topo-1-1467764431-worker-6700.log
	at org.apache.logging.log4j.core.appender.OutputStreamManager.flush(OutputStreamManager.java:159)
	at org.apache.logging.log4j.core.appender.AbstractOutputStreamAppender.append(AbstractOutputStreamAppender.java:112)
	at org.apache.logging.log4j.core.appender.RollingFileAppender.append(RollingFileAppender.java:88)
	at org.apache.logging.log4j.core.config.AppenderControl.callAppender(AppenderControl.java:99)
	at org.apache.logging.log4j.core.config.LoggerConfig.callAppenders(LoggerConfig.java:430)
	at org.apache.logging.log4j.core.config.LoggerConfig.log(LoggerConfig.java:409)
	at org.apache.logging.log4j.core.config.LoggerConfig.log(LoggerConfig.java:367)
	at org.apache.logging.log4j.core.Logger.logMessage(Logger.java:112)
	at org.apache.logging.log4j.spi.AbstractLogger.logMessage(AbstractLogger.java:727)
	at org.apache.logging.log4j.spi.AbstractLogger.logIfEnabled(AbstractLogger.java:716)
	at org.apache.logging.slf4j.Log4jLogger.info(Log4jLogger.java:198)
	at org.apache.storm.shade.clojure.tools.logging$eval1$fn__7.invoke(NO_SOURCE_FILE:0)
	at org.apache.storm.shade.clojure.tools.logging.impl$fn__28$G__8__39.invoke(impl.clj:16)
	at org.apache.storm.shade.clojure.tools.logging$log_STAR_.invoke(logging.clj:59)
	at backtype.storm.daemon.worker$fn__7098$exec_fn__1236__auto__$reify__7100$shutdown_STAR___7118.invoke(worker.clj:463)
	at backtype.storm.daemon.worker$fn__7098$exec_fn__1236__auto__$reify$reify__7144.shutdown(worker.clj:500)
	at sun.reflect.NativeMethodAccessorImpl.invoke0(Native Method)
	at sun.reflect.NativeMethodAccessorImpl.invoke(NativeMethodAccessorImpl.java:62)
	at sun.reflect.DelegatingMethodAccessorImpl.invoke(DelegatingMethodAccessorImpl.java:43)
	at java.lang.reflect.Method.invoke(Method.java:498)
	at clojure.lang.Reflector.invokeMatchingMethod(Reflector.java:93)
	at clojure.lang.Reflector.invokeNoArgInstanceMember(Reflector.java:313)
	at backtype.storm.daemon.worker$_main$fn__7192.invoke(worker.clj:543)
	at backtype.storm.util$add_shutdown_hook_with_force_kill_in_1_sec$fn__482.invoke(util.clj:456)
	at clojure.lang.AFn.run(AFn.java:22)
	at java.lang.Thread.run(Thread.java:745)
Caused by: java.io.IOException: Stream Closed
	at java.io.FileOutputStream.writeBytes(Native Method)
	at java.io.FileOutputStream.write(FileOutputStream.java:326)
	at java.io.BufferedOutputStream.flushBuffer(BufferedOutputStream.java:82)
	at java.io.BufferedOutputStream.flush(BufferedOutputStream.java:140)
	at org.apache.logging.log4j.core.appender.OutputStreamManager.flush(OutputStreamManager.java:156)
	... 25 more

2016-07-06 03:45:08,494 ERROR Attempted to append to non-started appender syslog
2016-07-06 04:39:02,654 ERROR Attempted to append to non-started appender syslog
2016-07-06 05:32:53,928 ERROR Unable to write to stream /home/triparna/bmt2/streaming-benchmarks/apache-storm-0.10.0/logs/test-topo-1-1467764431-worker-6700.log for appender A1
2016-07-06 05:32:53,935 ERROR An exception occurred processing Appender A1 org.apache.logging.log4j.core.appender.AppenderLoggingException: Error flushing stream /home/triparna/bmt2/streaming-benchmarks/apache-storm-0.10.0/logs/test-topo-1-1467764431-worker-6700.log
	at org.apache.logging.log4j.core.appender.OutputStreamManager.flush(OutputStreamManager.java:159)
	at org.apache.logging.log4j.core.appender.AbstractOutputStreamAppender.append(AbstractOutputStreamAppender.java:112)
	at org.apache.logging.log4j.core.appender.RollingFileAppender.append(RollingFileAppender.java:88)
	at org.apache.logging.log4j.core.config.AppenderControl.callAppender(AppenderControl.java:99)
	at org.apache.logging.log4j.core.config.LoggerConfig.callAppenders(LoggerConfig.java:430)
	at org.apache.logging.log4j.core.config.LoggerConfig.log(LoggerConfig.java:409)
	at org.apache.logging.log4j.core.config.LoggerConfig.log(LoggerConfig.java:367)
	at org.apache.logging.log4j.core.Logger.logMessage(Logger.java:112)
	at org.apache.logging.log4j.spi.AbstractLogger.logMessage(AbstractLogger.java:727)
	at org.apache.logging.log4j.spi.AbstractLogger.logIfEnabled(AbstractLogger.java:716)
	at org.apache.logging.slf4j.Log4jLogger.info(Log4jLogger.java:198)
	at org.apache.storm.shade.clojure.tools.logging$eval1$fn__7.invoke(NO_SOURCE_FILE:0)
	at org.apache.storm.shade.clojure.tools.logging.impl$fn__28$G__8__39.invoke(impl.clj:16)
	at org.apache.storm.shade.clojure.tools.logging$log_STAR_.invoke(logging.clj:59)
	at backtype.storm.daemon.worker$fn__7098$exec_fn__1236__auto__$reify__7100$shutdown_STAR___7118.invoke(worker.clj:458)
	at backtype.storm.daemon.worker$fn__7098$exec_fn__1236__auto__$reify$reify__7144.shutdown(worker.clj:500)
	at sun.reflect.NativeMethodAccessorImpl.invoke0(Native Method)
	at sun.reflect.NativeMethodAccessorImpl.invoke(NativeMethodAccessorImpl.java:62)
	at sun.reflect.DelegatingMethodAccessorImpl.invoke(DelegatingMethodAccessorImpl.java:43)
	at java.lang.reflect.Method.invoke(Method.java:498)
	at clojure.lang.Reflector.invokeMatchingMethod(Reflector.java:93)
	at clojure.lang.Reflector.invokeNoArgInstanceMember(Reflector.java:313)
	at backtype.storm.daemon.worker$_main$fn__7192.invoke(worker.clj:543)
	at backtype.storm.util$add_shutdown_hook_with_force_kill_in_1_sec$fn__482.invoke(util.clj:456)
	at clojure.lang.AFn.run(AFn.java:22)
	at java.lang.Thread.run(Thread.java:745)
Caused by: java.io.IOException: Stream Closed
	at java.io.FileOutputStream.writeBytes(Native Method)
	at java.io.FileOutputStream.write(FileOutputStream.java:326)
	at java.io.BufferedOutputStream.flushBuffer(BufferedOutputStream.java:82)
	at java.io.BufferedOutputStream.flush(BufferedOutputStream.java:140)
	at org.apache.logging.log4j.core.appender.OutputStreamManager.flush(OutputStreamManager.java:156)
	... 25 more

2016-07-06 05:32:53,937 ERROR Attempted to append to non-started appender syslog
2016-07-06 05:37:49,792 ERROR Attempted to append to non-started appender syslog
2016-07-06 06:11:11,028 ERROR Unable to write to stream /home/triparna/bmt2/streaming-benchmarks/apache-storm-0.10.0/logs/test-topo-1-1467764431-worker-6700.log for appender A1
2016-07-06 06:11:11,031 ERROR An exception occurred processing Appender A1 org.apache.logging.log4j.core.appender.AppenderLoggingException: Error flushing stream /home/triparna/bmt2/streaming-benchmarks/apache-storm-0.10.0/logs/test-topo-1-1467764431-worker-6700.log
	at org.apache.logging.log4j.core.appender.OutputStreamManager.flush(OutputStreamManager.java:159)
	at org.apache.logging.log4j.core.appender.AbstractOutputStreamAppender.append(AbstractOutputStreamAppender.java:112)
	at org.apache.logging.log4j.core.appender.RollingFileAppender.append(RollingFileAppender.java:88)
	at org.apache.logging.log4j.core.config.AppenderControl.callAppender(AppenderControl.java:99)
	at org.apache.logging.log4j.core.config.LoggerConfig.callAppenders(LoggerConfig.java:430)
	at org.apache.logging.log4j.core.config.LoggerConfig.log(LoggerConfig.java:409)
	at org.apache.logging.log4j.core.config.LoggerConfig.log(LoggerConfig.java:367)
	at org.apache.logging.log4j.core.Logger.logMessage(Logger.java:112)
	at org.apache.logging.log4j.spi.AbstractLogger.logMessage(AbstractLogger.java:727)
	at org.apache.logging.log4j.spi.AbstractLogger.logIfEnabled(AbstractLogger.java:716)
	at org.apache.logging.slf4j.Log4jLogger.info(Log4jLogger.java:198)
	at org.apache.storm.shade.clojure.tools.logging$eval1$fn__7.invoke(NO_SOURCE_FILE:0)
	at org.apache.storm.shade.clojure.tools.logging.impl$fn__28$G__8__39.invoke(impl.clj:16)
	at org.apache.storm.shade.clojure.tools.logging$log_STAR_.invoke(logging.clj:59)
	at backtype.storm.daemon.worker$fn__7098$exec_fn__1236__auto__$reify__7100$shutdown_STAR___7118.invoke(worker.clj:463)
	at backtype.storm.daemon.worker$fn__7098$exec_fn__1236__auto__$reify$reify__7144.shutdown(worker.clj:500)
	at sun.reflect.NativeMethodAccessorImpl.invoke0(Native Method)
	at sun.reflect.NativeMethodAccessorImpl.invoke(NativeMethodAccessorImpl.java:62)
	at sun.reflect.DelegatingMethodAccessorImpl.invoke(DelegatingMethodAccessorImpl.java:43)
	at java.lang.reflect.Method.invoke(Method.java:498)
	at clojure.lang.Reflector.invokeMatchingMethod(Reflector.java:93)
	at clojure.lang.Reflector.invokeNoArgInstanceMember(Reflector.java:313)
	at backtype.storm.daemon.worker$_main$fn__7192.invoke(worker.clj:543)
	at backtype.storm.util$add_shutdown_hook_with_force_kill_in_1_sec$fn__482.invoke(util.clj:456)
	at clojure.lang.AFn.run(AFn.java:22)
	at java.lang.Thread.run(Thread.java:745)
Caused by: java.io.IOException: Stream Closed
	at java.io.FileOutputStream.writeBytes(Native Method)
	at java.io.FileOutputStream.write(FileOutputStream.java:326)
	at java.io.BufferedOutputStream.flushBuffer(BufferedOutputStream.java:82)
	at java.io.BufferedOutputStream.flush(BufferedOutputStream.java:140)
	at org.apache.logging.log4j.core.appender.OutputStreamManager.flush(OutputStreamManager.java:156)
	... 25 more

2016-07-06 06:11:11,033 ERROR Attempted to append to non-started appender syslog
2016-07-06 06:40:11,196 ERROR Attempted to append to non-started appender syslog
2016-07-06 07:41:38,367 ERROR Attempted to append to non-started appender syslog
2016-07-06 08:12:02,541 FATAL Unable to register shutdown hook because JVM is shutting down.
2016-07-06 08:12:02,570 FATAL Unable to register shutdown hook because JVM is shutting down.
2016-07-06 08:35:59,565 ERROR Attempted to append to non-started appender syslog
2016-07-06 08:59:14,144 ERROR Attempted to append to non-started appender syslog
2016-07-06 09:57:53,827 ERROR Attempted to append to non-started appender syslog
2016-07-06 10:06:36,927 ERROR Attempted to append to non-started appender syslog
2016-07-06 10:54:18,177 FATAL Unable to register shutdown hook because JVM is shutting down.
2016-07-06 10:54:18,214 FATAL Unable to register shutdown hook because JVM is shutting down.
2016-07-06 10:58:21,080 ERROR Unable to write to stream /home/triparna/bmt2/streaming-benchmarks/apache-storm-0.10.0/logs/test-topo-1-1467764431-worker-6700.log for appender A1
2016-07-06 10:58:21,084 ERROR An exception occurred processing Appender A1 org.apache.logging.log4j.core.appender.AppenderLoggingException: Error flushing stream /home/triparna/bmt2/streaming-benchmarks/apache-storm-0.10.0/logs/test-topo-1-1467764431-worker-6700.log
	at org.apache.logging.log4j.core.appender.OutputStreamManager.flush(OutputStreamManager.java:159)
	at org.apache.logging.log4j.core.appender.AbstractOutputStreamAppender.append(AbstractOutputStreamAppender.java:112)
	at org.apache.logging.log4j.core.appender.RollingFileAppender.append(RollingFileAppender.java:88)
	at org.apache.logging.log4j.core.config.AppenderControl.callAppender(AppenderControl.java:99)
	at org.apache.logging.log4j.core.config.LoggerConfig.callAppenders(LoggerConfig.java:430)
	at org.apache.logging.log4j.core.config.LoggerConfig.log(LoggerConfig.java:409)
	at org.apache.logging.log4j.core.config.LoggerConfig.log(LoggerConfig.java:367)
	at org.apache.logging.log4j.core.Logger.logMessage(Logger.java:112)
	at org.apache.logging.log4j.spi.AbstractLogger.logMessage(AbstractLogger.java:727)
	at org.apache.logging.log4j.spi.AbstractLogger.logIfEnabled(AbstractLogger.java:716)
	at org.apache.logging.slf4j.Log4jLogger.info(Log4jLogger.java:198)
	at org.apache.storm.shade.clojure.tools.logging$eval1$fn__7.invoke(NO_SOURCE_FILE:0)
	at org.apache.storm.shade.clojure.tools.logging.impl$fn__28$G__8__39.invoke(impl.clj:16)
	at org.apache.storm.shade.clojure.tools.logging$log_STAR_.invoke(logging.clj:59)
	at backtype.storm.daemon.worker$fn__7098$exec_fn__1236__auto__$reify__7100$shutdown_STAR___7118.invoke(worker.clj:458)
	at backtype.storm.daemon.worker$fn__7098$exec_fn__1236__auto__$reify$reify__7144.shutdown(worker.clj:500)
	at sun.reflect.NativeMethodAccessorImpl.invoke0(Native Method)
	at sun.reflect.NativeMethodAccessorImpl.invoke(NativeMethodAccessorImpl.java:62)
	at sun.reflect.DelegatingMethodAccessorImpl.invoke(DelegatingMethodAccessorImpl.java:43)
	at java.lang.reflect.Method.invoke(Method.java:498)
	at clojure.lang.Reflector.invokeMatchingMethod(Reflector.java:93)
	at clojure.lang.Reflector.invokeNoArgInstanceMember(Reflector.java:313)
	at backtype.storm.daemon.worker$_main$fn__7192.invoke(worker.clj:543)
	at backtype.storm.util$add_shutdown_hook_with_force_kill_in_1_sec$fn__482.invoke(util.clj:456)
	at clojure.lang.AFn.run(AFn.java:22)
	at java.lang.Thread.run(Thread.java:745)
Caused by: java.io.IOException: Stream Closed
	at java.io.FileOutputStream.writeBytes(Native Method)
	at java.io.FileOutputStream.write(FileOutputStream.java:326)
	at java.io.BufferedOutputStream.flushBuffer(BufferedOutputStream.java:82)
	at java.io.BufferedOutputStream.flush(BufferedOutputStream.java:140)
	at org.apache.logging.log4j.core.appender.OutputStreamManager.flush(OutputStreamManager.java:156)
	... 25 more

2016-07-06 10:58:21,087 ERROR Attempted to append to non-started appender syslog
2016-07-06 11:04:43,161 ERROR Attempted to append to non-started appender syslog
2016-07-06 11:05:30,095 ERROR Attempted to append to non-started appender syslog
2016-07-06 11:11:05,788 ERROR Attempted to append to non-started appender syslog
2016-07-06 12:44:12,374 ERROR Attempted to append to non-started appender syslog
2016-07-06 12:47:57,575 ERROR Attempted to append to non-started appender syslog
2016-07-06 13:21:15,712 ERROR Attempted to append to non-started appender syslog
2016-07-06 14:59:52,971 ERROR Attempted to append to non-started appender syslog
2016-07-06 15:17:01,216 FATAL Unable to register shutdown hook because JVM is shutting down.
2016-07-06 15:17:01,252 FATAL Unable to register shutdown hook because JVM is shutting down.
2016-07-06 15:44:06,819 FATAL Unable to register shutdown hook because JVM is shutting down.
2016-07-06 15:44:06,851 FATAL Unable to register shutdown hook because JVM is shutting down.
2016-07-06 15:48:18,860 ERROR Attempted to append to non-started appender syslog
2016-07-06 16:06:16,400 ERROR Unable to write to stream /home/triparna/bmt2/streaming-benchmarks/apache-storm-0.10.0/logs/test-topo-1-1467764431-worker-6700.log for appender A1
2016-07-06 16:06:16,400 ERROR An exception occurred processing Appender A1 org.apache.logging.log4j.core.appender.AppenderLoggingException: Error flushing stream /home/triparna/bmt2/streaming-benchmarks/apache-storm-0.10.0/logs/test-topo-1-1467764431-worker-6700.log
	at org.apache.logging.log4j.core.appender.OutputStreamManager.flush(OutputStreamManager.java:159)
	at org.apache.logging.log4j.core.appender.AbstractOutputStreamAppender.append(AbstractOutputStreamAppender.java:112)
	at org.apache.logging.log4j.core.appender.RollingFileAppender.append(RollingFileAppender.java:88)
	at org.apache.logging.log4j.core.config.AppenderControl.callAppender(AppenderControl.java:99)
	at org.apache.logging.log4j.core.config.LoggerConfig.callAppenders(LoggerConfig.java:430)
	at org.apache.logging.log4j.core.config.LoggerConfig.log(LoggerConfig.java:409)
	at org.apache.logging.log4j.core.config.LoggerConfig.log(LoggerConfig.java:367)
	at org.apache.logging.log4j.core.Logger.logMessage(Logger.java:112)
	at org.apache.logging.log4j.spi.AbstractLogger.logMessage(AbstractLogger.java:727)
	at org.apache.logging.log4j.spi.AbstractLogger.logIfEnabled(AbstractLogger.java:716)
	at org.apache.logging.slf4j.Log4jLogger.info(Log4jLogger.java:198)
	at org.apache.storm.shade.clojure.tools.logging$eval1$fn__7.invoke(NO_SOURCE_FILE:0)
	at org.apache.storm.shade.clojure.tools.logging.impl$fn__28$G__8__39.invoke(impl.clj:16)
	at org.apache.storm.shade.clojure.tools.logging$log_STAR_.invoke(logging.clj:59)
	at backtype.storm.daemon.worker$fn__7098$exec_fn__1236__auto__$reify__7100$shutdown_STAR___7118.invoke(worker.clj:463)
	at backtype.storm.daemon.worker$fn__7098$exec_fn__1236__auto__$reify$reify__7144.shutdown(worker.clj:500)
	at sun.reflect.NativeMethodAccessorImpl.invoke0(Native Method)
	at sun.reflect.NativeMethodAccessorImpl.invoke(NativeMethodAccessorImpl.java:62)
	at sun.reflect.DelegatingMethodAccessorImpl.invoke(DelegatingMethodAccessorImpl.java:43)
	at java.lang.reflect.Method.invoke(Method.java:498)
	at clojure.lang.Reflector.invokeMatchingMethod(Reflector.java:93)
	at clojure.lang.Reflector.invokeNoArgInstanceMember(Reflector.java:313)
	at backtype.storm.daemon.worker$_main$fn__7192.invoke(worker.clj:543)
	at backtype.storm.util$add_shutdown_hook_with_force_kill_in_1_sec$fn__482.invoke(util.clj:456)
	at clojure.lang.AFn.run(AFn.java:22)
	at java.lang.Thread.run(Thread.java:745)
Caused by: java.io.IOException: Stream Closed
	at java.io.FileOutputStream.writeBytes(Native Method)
	at java.io.FileOutputStream.write(FileOutputStream.java:326)
	at java.io.BufferedOutputStream.flushBuffer(BufferedOutputStream.java:82)
	at java.io.BufferedOutputStream.flush(BufferedOutputStream.java:140)
	at org.apache.logging.log4j.core.appender.OutputStreamManager.flush(OutputStreamManager.java:156)
	... 25 more

2016-07-06 16:06:16,403 ERROR Attempted to append to non-started appender syslog
2016-07-06 16:37:40,264 ERROR Attempted to append to non-started appender syslog
